{
  "type": "accessories",
  "title": "Blizzard in a Bottle",
  "summaries": [
    "The <b>Blizzard in a Bottle</b> is a <linked>pre-Hardmode</linked> <linked>accessory</linked> which works similarly to the <linked>Cloud in a Bottle</linked>, allowing the player to double-jump. Instead of a cloud being produced when the player jumps, a trail of snow is produced at the player's feet. The Blizzard jump goes 8 tiles into the air, totaling 14 tiles when put together with the first jump. The Blizard in a Bottle has a <span class=\"chance\" data-sort-value=\"15.51\">1551/10000 (15.51%)</span> chance of being found inside <linked>Frozen Chests</linked> in the <linked>Ice biome</linked>, as well as a <span class=\"chance\" data-sort-value=\"16.67\">1/6 (16.67%)</span> chance of being obtained from <span class=\"eil\"><span><linked>Frozen</linked></span><span class=\"eico s i1 i2 i4\" title=\"Desktop, Console and Mobile versions\"><b></b><i></i><span>(Desktop, Console and Mobile versions)</span></span></span> and <span class=\"eil\"><span><linked>Boreal Crates</linked></span><span class=\"eico s i1 i2 i4\" title=\"Desktop, Console and Mobile versions\"><b></b><i></i><span>(Desktop, Console and Mobile versions)</span></span></span>. On the <linked>[img:Desktop version]</linked><linked> Desktop version</linked>, <linked>[img:Console version]</linked><linked> Console version</linked>, and <linked>[img:Mobile version]</linked><linked> Mobile version</linked>, it can also be crafted at a <linked>Crystal Ball</linked>."
  ],
  "statistics": {
    "Tooltip": "<i><span class=\"gameText\">Allows the holder to double jump</span></i>",
    "Rarity": "<span class=\"rarity\"><linked>[img:Rarity level: 1]</linked></span>",
    "Sell": "<span class=\"coin\" title=\"1 Gold Coin\" data-sort-value=\"10000\"><span class=\"gc\">1<i> GC</i></span></span>",
    "Research": "<abbr class=\"mode-exclusive journey\" title=\"Journey Mode\">1 required</abbr>"
  },
  "crafts": {
    "<span class=\"mw-headline\" id=\"Recipes\">Recipes</span>": [
      {
        "result": {
          "rowspan": 1,
          "value": "<div class=\"version-note note-text small\"><linked>[img:Desktop version]</linked> <linked>[img:Console version]</linked> <linked>[img:Mobile version]</linked> only:</div><span class=\"i multi-line\"><linked>[img:Blizzard in a Bottle]</linked><span><span><linked>Blizzard in a Bottle</linked></span></span></span>"
        },
        "ingredients": {
          "value": "<ul><li><span class=\"i\"><linked>[img:Cloud in a Bottle]</linked><span><span><linked>Cloud in a Bottle</linked></span></span></span></li><li><span class=\"i\"><linked>[img:Frost Core]</linked><span><span><linked>Frost Core</linked></span><span class=\"eico s i1 i2 i3 i4\" title=\"Desktop, Console, Old-gen console and Mobile versions\"><b></b><i></i><span>(Desktop, Console, Old-gen console and Mobile versions)</span></span></span></span></li></ul>"
        },
        "station": {
          "rowspan": 1,
          "value": "<span class=\"i\"><linked>[img:Crystal Ball]</linked><span><span><linked>Crystal Ball</linked></span></span></span>"
        }
      }
    ],
    "<span class=\"mw-headline\" id=\"Used_in\">Used in</span>": [
      {
        "result": {
          "rowspan": 1,
          "value": "<span class=\"i multi-line\"><linked>[img:Blizzard in a Balloon]</linked><span><span><linked>Blizzard in a Balloon</linked></span></span></span>"
        },
        "ingredients": {
          "value": "<ul><li><span class=\"i\"><linked>[img:Blizzard in a Bottle]</linked><span><span><linked>Blizzard in a Bottle</linked></span></span></span></li><li><span class=\"i\"><linked>[img:Shiny Red Balloon]</linked><span><span><linked>Shiny Red Balloon</linked></span></span></span></li></ul>"
        },
        "station": {
          "rowspan": 1,
          "value": "<span class=\"i\"><linked>[img:Tinkerer's Workshop]</linked><span><span><linked>Tinkerer's Workshop</linked></span></span></span>"
        }
      }
    ]
  }
}