{
  "type": "accessories",
  "title": "Bone Helm",
  "summaries": [
    "The <b>Bone Helm</b> is a <linked>pre-Hardmode</linked> <linked>accessory</linked> that summons Shadow Hand projectiles to damage <linked>enemies</linked>. These Shadow Hands spawn a distance from enemies before flying at them, piercing anything in their path including through blocks. Their flight behavior mirrors the Shadow Hands found in the <linked>Deerclops</linked> fight, either flying straight or swerving harshly in flight. The Bone Helm is always dropped from <linked>Deerclops</linked>' <linked>Treasure Bag</linked> in <linked>Expert Mode</linked>."
  ],
  "statistics": {
    "Tooltip": "<i><span class=\"gameText\">Summons shadow hands to attack your foes<br>'I've got a headache just looking at it.'</span></i>",
    "Rarity": "<span class=\"rarity\"><linked>[img:Rarity level: Rainbow]</linked></span>",
    "Sell": "<span class=\"coin\" title=\"2 Gold Coins\" data-sort-value=\"20000\"><span class=\"gc\">2<i> GC</i></span></span>",
    "Research": "<abbr class=\"mode-exclusive journey\" title=\"Journey Mode\">1 required</abbr>"
  },
  "crafts": {}
}