{
  "type": "miscellaneous",
  "title": "Corrupt Seeds",
  "summaries": [
    "<b>Corrupt Seeds</b> are <linked>seeds</linked> which can be planted on <linked>Dirt Blocks</linked> to create <linked>Corrupt grass</linked>, which will then <linked>spread</linked> <linked>The Corruption</linked> in all directions. They drop from the <linked>Eye of Cthulhu</linked> and can be purchased from the <linked>Dryad</linked> for <span class=\"coin\" title=\"5 Silver Coins\" data-sort-value=\"500\"><span class=\"sc\">5<i> SC</i></span></span> each during a <linked>Blood Moon</linked> in a world with Corruption. In a world with <linked>Crimson</linked>, Corrupt Seeds can be purchased from the Dryad if she is spoken to in a <linked>Hardmode</linked> <span class=\"eil\"><span><linked>Graveyard</linked></span><span class=\"eico s i1 i2 i4\" title=\"Desktop, Console and Mobile versions\"><b></b><i></i><span>(Desktop, Console and Mobile versions)</span></span></span>.",
    "Corrupt Seeds can be used to <linked>farm</linked> <linked>Vile Mushrooms</linked> and may be used to spread Corruption in Crimson worlds. In the <linked>[img:Old-gen console version]</linked><linked> Old-gen console version</linked> and <linked>Nintendo 3DS</linked><linked>[img:Nintendo 3DS version]</linked><linked> version</linked>, Corrupt Seeds cannot be obtained within Crimson worlds and must instead be brought over from a Corrupt world.",
    "On the no version, Corrupt Seeds can also be planted on <linked>Mud Blocks</linked> to create <linked>Corrupt Jungle grass</linked>."
  ],
  "statistics": {
    "Placeable": "<span class=\"t-yes\">✔️</span>",
    "Use time": "15 <span class=\"usetime\">(Very fast)</span>",
    "Max stack": "9999 <span class=\"eico s i1 i2 i4\" title=\"Desktop, Console and Mobile versions\"><b></b><i></i><span>(Desktop, Console and Mobile versions)</span></span> / 99 <span class=\"eico s i3 i5\" title=\"Old-gen console and 3DS versions\"><b></b><i></i><span>(Old-gen console and 3DS versions)</span></span>",
    "Rarity": "<span class=\"rarity\"><linked>[img:Rarity level: 0]</linked></span>",
    "Buy": "<span class=\"coin\" title=\"5 Silver Coins\" data-sort-value=\"500\"><span class=\"sc\">5<i> SC</i></span></span>",
    "Sell": "<span class=\"coin\" title=\"1 Silver Coin\" data-sort-value=\"100\"><span class=\"sc\">1<i> SC</i></span></span>",
    "Research": "<abbr class=\"mode-exclusive journey\" title=\"Journey Mode\">25 required</abbr>"
  },
  "crafts": {
    "<span class=\"mw-headline\" id=\"Used_in\">Used in</span>": [
      {
        "result": {
          "rowspan": 1,
          "value": "<div class=\"version-note note-text small\"><linked>[img:Desktop version]</linked> <linked>[img:Console version]</linked> <linked>[img:Mobile version]</linked> only:</div><span class=\"i multi-line\"><linked>[img:Unholy Water]</linked><span><span><linked>Unholy Water</linked></span></span></span><span class=\"am\">10</span>"
        },
        "ingredients": {
          "value": "<ul><li><span class=\"i\"><linked>[img:Bottled Water]</linked><span><span><linked>Bottled Water</linked></span></span></span><span class=\"am\">10</span></li><li><span class=\"i\"><linked>[img:Ebonsand Block]</linked><span><span><linked>Ebonsand Block</linked></span></span></span></li><li><span class=\"i\"><linked>[img:Corrupt Seeds]</linked><span><span><linked>Corrupt Seeds</linked></span></span></span></li></ul>"
        },
        "station": {
          "rowspan": 2,
          "value": "<linked>By Hand</linked>"
        }
      },
      {
        "result": {
          "rowspan": 1,
          "value": "<div class=\"version-note note-text small\"><linked>[img:Old-gen console version]</linked> <linked>[img:Nintendo 3DS version]</linked> only:</div><span class=\"i multi-line\"><linked>[img:Unholy Water]</linked><span><span><linked>Unholy Water</linked></span></span></span><span class=\"am\">5</span>"
        },
        "ingredients": {
          "value": "<ul><li><span class=\"i\"><linked>[img:Bottled Water]</linked><span><span><linked>Bottled Water</linked></span></span></span></li><li><span class=\"i\"><linked>[img:Ebonsand Block]</linked><span><span><linked>Ebonsand Block</linked></span></span></span></li><li><span class=\"i\"><linked>[img:Corrupt Seeds]</linked><span><span><linked>Corrupt Seeds</linked></span></span></span></li></ul>"
        }
      }
    ]
  }
}