{
  "type": "miscellaneous",
  "title": "Goblin Battle Standard",
  "summaries": [
    "The <b>Goblin Battle Standard</b> is an <linked>event-summoning item</linked> that initiates the <linked>Goblin Army</linked> <linked>event</linked> when used. The Goblin Battle Standard is consumed when used, so one must be crafted for each invasion the player wishes to summon. In order for it to be used, at least one <linked>player</linked> in the current world must also have 200 <linked>health</linked> or more.",
    "The <linked>Tattered Cloth</linked> required for crafting the Goblin Battle Standard is obtained by killing <linked>Goblin Scouts</linked>, which spawn occasionally in the East and West thirds of the world."
  ],
  "statistics": {
    "Consumable": "<span class=\"t-yes\">✔️</span>",
    "Use time": "45 <span class=\"usetime\">(Very slow)</span>",
    "Tooltip": "<i><span class=\"gameText\">Summons a Goblin Army</span></i>",
    "Rarity": "<span class=\"rarity\"><linked>[img:Rarity level: 0]</linked></span>",
    "Research": "<abbr class=\"mode-exclusive journey\" title=\"Journey Mode\">3 required</abbr>"
  },
  "crafts": {
    "<span class=\"mw-headline\" id=\"Recipes\">Recipes</span>": [
      {
        "result": {
          "rowspan": 1,
          "value": "<span class=\"i multi-line\"><linked>[img:Goblin Battle Standard]</linked><span><span><linked>Goblin Battle Standard</linked></span></span></span>"
        },
        "ingredients": {
          "value": "<ul><li><span class=\"i\"><linked>[img:Tattered Cloth]</linked><span><span><linked>Tattered Cloth</linked></span></span></span><span class=\"am\">10</span></li><li><span class=\"i\"><linked>[img:Any Wood]</linked><span><span><linked>Any Wood</linked></span></span></span><span class=\"am\">5</span></li></ul>"
        },
        "station": {
          "rowspan": 1,
          "value": "<span class=\"i\"><linked>[img:Loom]</linked><span><span><linked>Loom</linked></span></span></span>"
        }
      }
    ]
  }
}