{
  "type": "accessories",
  "title": "Hive Pack",
  "summaries": [
    "The <b>Hive Pack</b> is a <linked>pre-Hardmode</linked> <linked>accessory</linked> that, when equipped, grants a <span class=\"chance\" data-sort-value=\"50\">1/2 (50%)</span> chance of replacing friendly Bee projectiles with larger \"Giant Bees\". The Hive Pack is always dropped from the <linked>Queen Bee</linked>'s <linked>Treasure Bag</linked> in <linked>Expert Mode</linked>."
  ],
  "statistics": {
    "Tooltip": "<i><span class=\"gameText\">Increases the strength of friendly bees</span></i>",
    "Rarity": "<span class=\"rarity\"><linked>[img:Rarity level: Rainbow]</linked></span>",
    "Sell": "<span class=\"coin\" title=\"2 Gold Coins\" data-sort-value=\"20000\"><span class=\"gc\">2<i> GC</i></span></span>",
    "Research": "<abbr class=\"mode-exclusive journey\" title=\"Journey Mode\">1 required</abbr>"
  },
  "crafts": {}
}