{
  "type": "weapons",
  "title": "Ice Boomerang",
  "summaries": [
    "The <b>Ice Boomerang</b> is a <linked>pre-Hardmode</linked> <linked>boomerang</linked> that behaves like a regular <linked>Wooden Boomerang</linked>, but is faster and emits light. On <linked>[img:Desktop version]</linked><linked> Desktop</linked>, <linked>[img:Console version]</linked><linked> Console</linked>, and <linked>[img:Mobile version]</linked><linked> Mobile</linked>, it can also inflict the <linked>Frostburn</linked> <linked>debuff</linked> for 3 seconds. The Ice Boomerang has a <span class=\"chance\" data-sort-value=\"15.51\">1551/10000 (15.51%)</span> chance of being found inside <linked>Frozen Chests</linked> in the <linked>Ice biome</linked>, as well as a <span class=\"chance\" data-sort-value=\"16.67\">1/6 (16.67%)</span> chance of being obtained from <span class=\"eil\"><span><linked>Frozen</linked></span><span class=\"eico s i1 i2 i4\" title=\"Desktop, Console and Mobile versions\"><b></b><i></i><span>(Desktop, Console and Mobile versions)</span></span></span> and <span class=\"eil\"><span><linked>Boreal Crates</linked></span><span class=\"eico s i1 i2 i4\" title=\"Desktop, Console and Mobile versions\"><b></b><i></i><span>(Desktop, Console and Mobile versions)</span></span></span>.",
    "Its best <linked>modifier</linked> is <b>Godly</b> or <b>Demonic</b>. Both modifiers increase the average damage output by the same amount."
  ],
  "statistics": {
    "Damage": "21 <span class=\"eico s i1 i2 i4\" title=\"Desktop, Console and Mobile versions\"><b></b><i></i><span>(Desktop, Console and Mobile versions)</span></span> / 14 <span class=\"eico s i3 i5\" title=\"Old-gen console and 3DS versions\"><b></b><i></i><span>(Old-gen console and 3DS versions)</span></span> <span class=\"small-bold\">(Melee)</span>",
    "Knockback": "8.5 <span class=\"knockback\">(Very strong)</span>",
    "Critical chance": "6% <span class=\"eico s i1 i2 i4\" title=\"Desktop, Console and Mobile versions\"><b></b><i></i><span>(Desktop, Console and Mobile versions)</span></span> / 4% <span class=\"eico s i3 i5\" title=\"Old-gen console and 3DS versions\"><b></b><i></i><span>(Old-gen console and 3DS versions)</span></span>",
    "Use time": "20 <span class=\"usetime\">(Very fast)</span> <span class=\"eico s i1 i2 i4\" title=\"Desktop, Console and Mobile versions\"><b></b><i></i><span>(Desktop, Console and Mobile versions)</span></span> /<br>15 <span class=\"usetime\">(Very fast)</span> <span class=\"eico s i3 i5\" title=\"Old-gen console and 3DS versions\"><b></b><i></i><span>(Old-gen console and 3DS versions)</span></span>",
    "Velocity": "11.5",
    "Rarity": "<span class=\"rarity\"><linked>[img:Rarity level: 1]</linked></span>",
    "Sell": "<span class=\"coin\" title=\"1 Gold Coin\" data-sort-value=\"10000\"><span class=\"gc\">1<i> GC</i></span></span>",
    "Research": "<abbr class=\"mode-exclusive journey\" title=\"Journey Mode\">1 required</abbr>"
  },
  "crafts": {
    "<span class=\"mw-headline\" id=\"Used_in\">Used in</span>": [
      {
        "result": {
          "rowspan": 1,
          "value": "<span class=\"i multi-line\"><linked>[img:Trimarang]</linked><span><span><linked>Trimarang</linked></span><span class=\"eico s i1 i2 i4\" title=\"Desktop, Console and Mobile versions\"><b></b><i></i><span>(Desktop, Console and Mobile versions)</span></span></span></span>"
        },
        "ingredients": {
          "value": "<ul><li><span class=\"i\"><linked>[img:Enchanted Boomerang]</linked><span><span><linked>Enchanted Boomerang</linked></span></span></span></li><li><span class=\"i\"><linked>[img:Shroomerang]</linked><span><span><linked>Shroomerang</linked></span><span class=\"eico s i1 i2 i4\" title=\"Desktop, Console and Mobile versions\"><b></b><i></i><span>(Desktop, Console and Mobile versions)</span></span></span></span></li><li><span class=\"i\"><linked>[img:Ice Boomerang]</linked><span><span><linked>Ice Boomerang</linked></span></span></span></li></ul>"
        },
        "station": {
          "rowspan": 1,
          "value": "<span class=\"i\"><linked>[img:Work Bench]</linked><span><span><linked>Work Bench</linked></span></span></span>"
        }
      }
    ]
  }
}