{
  "type": "blocks",
  "title": "Nebula Brick",
  "summaries": [
    "The <b>Nebula Brick</b> is a <linked>Hardmode</linked>, post-<linked>Lunatic Cultist</linked> <linked>brick</linked> that is crafted from <linked>Nebula Fragments</linked>. It is one of the four <linked>Fragment Bricks</linked>, bricks which are crafted with <linked>Lunar Fragments</linked>. It can be used to craft <linked>Nebula furniture</linked>."
  ],
  "statistics": {
    "Placeable": "<span class=\"t-yes\">✔️</span> <span class=\"small-bold\">(1 wide × 1 high)</span>",
    "Use time": "15 <span class=\"usetime\">(Very fast)</span>",
    "Rarity": "<span class=\"rarity\"><linked>[img:Rarity level: 0]</linked></span>",
    "Research": "<abbr class=\"mode-exclusive journey\" title=\"Journey Mode\">100 required</abbr>"
  },
  "crafts": {
    "<span class=\"mw-headline\" id=\"Recipes\">Recipes</span>": [
      {
        "result": {
          "rowspan": 1,
          "value": "<span class=\"i multi-line\"><linked>[img:Nebula Brick]</linked><span><span><linked>Nebula Brick</linked></span><span class=\"eico s i1 i2 i4\" title=\"Desktop, Console and Mobile versions\"><b></b><i></i><span>(Desktop, Console and Mobile versions)</span></span></span></span><span class=\"am\">10</span>"
        },
        "ingredients": {
          "value": "<ul><li><span class=\"i\"><linked>[img:Stone Block]</linked><span><span><linked>Stone Block</linked></span></span></span><span class=\"am\">10</span></li><li><span class=\"i\"><linked>[img:Nebula Fragment]</linked><span><span><linked>Nebula Fragment</linked></span><span class=\"eico s i1 i2 i4\" title=\"Desktop, Console and Mobile versions\"><b></b><i></i><span>(Desktop, Console and Mobile versions)</span></span></span></span></li></ul>"
        },
        "station": {
          "rowspan": 1,
          "value": "<span class=\"i -w\"><linked>[img:Ancient Manipulator]</linked><span><span><linked>Ancient Manipulator</linked></span><span class=\"eico s i1 i2 i4\" title=\"Desktop, Console and Mobile versions\"><b></b><i></i><span>(Desktop, Console and Mobile versions)</span></span></span></span>"
        }
      },
      {
        "result": {
          "rowspan": 2,
          "value": "<span class=\"i multi-line\"><linked>[img:Nebula Brick]</linked><span><span><linked>Nebula Brick</linked></span><span class=\"eico s i1 i2 i4\" title=\"Desktop, Console and Mobile versions\"><b></b><i></i><span>(Desktop, Console and Mobile versions)</span></span></span></span>"
        },
        "ingredients": {
          "value": "<ul><li><span class=\"i\"><linked>[img:Nebula Platform]</linked><span><span><linked>Nebula Platform</linked></span><span class=\"eico s i1 i2 i4\" title=\"Desktop, Console and Mobile versions\"><b></b><i></i><span>(Desktop, Console and Mobile versions)</span></span></span></span><span class=\"am\">2</span></li></ul>"
        },
        "station": {
          "rowspan": 1,
          "value": "<linked>By Hand</linked>"
        }
      },
      {
        "ingredients": {
          "value": "<ul><li><span class=\"i\"><linked>[img:Nebula Brick Wall]</linked><span><span><linked>Nebula Brick Wall</linked></span><span class=\"eico s i1 i2 i4\" title=\"Desktop, Console and Mobile versions\"><b></b><i></i><span>(Desktop, Console and Mobile versions)</span></span></span></span><span class=\"am\">4</span></li></ul>"
        },
        "station": {
          "rowspan": 1,
          "value": "<span class=\"i\"><linked>[img:Work Bench]</linked><span><span><linked>Work Bench</linked></span></span></span>"
        }
      }
    ],
    "<span class=\"mw-headline\" id=\"Used_in\">Used in</span>": [
      {
        "result": {
          "rowspan": 1,
          "value": "<span class=\"i multi-line\"><linked>[img:Nebula Bathtub]</linked><span><span><linked>Nebula Bathtub</linked></span><span class=\"eico s i1 i2 i4\" title=\"Desktop, Console and Mobile versions\"><b></b><i></i><span>(Desktop, Console and Mobile versions)</span></span></span></span>"
        },
        "ingredients": {
          "value": "<ul><li><span class=\"i\"><linked>[img:Nebula Brick]</linked><span><span><linked>Nebula Brick</linked></span><span class=\"eico s i1 i2 i4\" title=\"Desktop, Console and Mobile versions\"><b></b><i></i><span>(Desktop, Console and Mobile versions)</span></span></span></span><span class=\"am\">14</span></li></ul>"
        },
        "station": {
          "rowspan": 19,
          "value": "<span class=\"i -w\"><linked>[img:Ancient Manipulator]</linked><span><span><linked>Ancient Manipulator</linked></span><span class=\"eico s i1 i2 i4\" title=\"Desktop, Console and Mobile versions\"><b></b><i></i><span>(Desktop, Console and Mobile versions)</span></span></span></span>"
        }
      },
      {
        "result": {
          "rowspan": 1,
          "value": "<span class=\"i multi-line\"><linked>[img:Nebula Bed]</linked><span><span><linked>Nebula Bed</linked></span><span class=\"eico s i1 i2 i4\" title=\"Desktop, Console and Mobile versions\"><b></b><i></i><span>(Desktop, Console and Mobile versions)</span></span></span></span>"
        },
        "ingredients": {
          "value": "<ul><li><span class=\"i\"><linked>[img:Nebula Brick]</linked><span><span><linked>Nebula Brick</linked></span><span class=\"eico s i1 i2 i4\" title=\"Desktop, Console and Mobile versions\"><b></b><i></i><span>(Desktop, Console and Mobile versions)</span></span></span></span><span class=\"am\">15</span></li><li><span class=\"i\"><linked>[img:Silk]</linked><span><span><linked>Silk</linked></span></span></span><span class=\"am\">5</span></li></ul>"
        }
      },
      {
        "result": {
          "rowspan": 1,
          "value": "<span class=\"i multi-line\"><linked>[img:Nebula Bookcase]</linked><span><span><linked>Nebula Bookcase</linked></span><span class=\"eico s i1 i2 i4\" title=\"Desktop, Console and Mobile versions\"><b></b><i></i><span>(Desktop, Console and Mobile versions)</span></span></span></span>"
        },
        "ingredients": {
          "value": "<ul><li><span class=\"i\"><linked>[img:Nebula Brick]</linked><span><span><linked>Nebula Brick</linked></span><span class=\"eico s i1 i2 i4\" title=\"Desktop, Console and Mobile versions\"><b></b><i></i><span>(Desktop, Console and Mobile versions)</span></span></span></span><span class=\"am\">20</span></li><li><span class=\"i\"><linked>[img:Book]</linked><span><span><linked>Book</linked></span></span></span><span class=\"am\">10</span></li></ul>"
        }
      },
      {
        "result": {
          "rowspan": 1,
          "value": "<span class=\"i multi-line\"><linked>[img:Nebula Candelabra]</linked><span><span><linked>Nebula Candelabra</linked></span><span class=\"eico s i1 i2 i4\" title=\"Desktop, Console and Mobile versions\"><b></b><i></i><span>(Desktop, Console and Mobile versions)</span></span></span></span>"
        },
        "ingredients": {
          "value": "<ul><li><span class=\"i\"><linked>[img:Nebula Brick]</linked><span><span><linked>Nebula Brick</linked></span><span class=\"eico s i1 i2 i4\" title=\"Desktop, Console and Mobile versions\"><b></b><i></i><span>(Desktop, Console and Mobile versions)</span></span></span></span><span class=\"am\">5</span></li><li><span class=\"i\"><linked>[img:Torch]</linked><span><span><linked>Torch</linked></span></span></span><span class=\"am\">3</span></li></ul>"
        }
      },
      {
        "result": {
          "rowspan": 1,
          "value": "<span class=\"i multi-line\"><linked>[img:Nebula Candle]</linked><span><span><linked>Nebula Candle</linked></span><span class=\"eico s i1 i2 i4\" title=\"Desktop, Console and Mobile versions\"><b></b><i></i><span>(Desktop, Console and Mobile versions)</span></span></span></span>"
        },
        "ingredients": {
          "value": "<ul><li><span class=\"i\"><linked>[img:Nebula Brick]</linked><span><span><linked>Nebula Brick</linked></span><span class=\"eico s i1 i2 i4\" title=\"Desktop, Console and Mobile versions\"><b></b><i></i><span>(Desktop, Console and Mobile versions)</span></span></span></span><span class=\"am\">4</span></li><li><span class=\"i\"><linked>[img:Torch]</linked><span><span><linked>Torch</linked></span></span></span></li></ul>"
        }
      },
      {
        "result": {
          "rowspan": 1,
          "value": "<span class=\"i multi-line\"><linked>[img:Nebula Chair]</linked><span><span><linked>Nebula Chair</linked></span><span class=\"eico s i1 i2 i4\" title=\"Desktop, Console and Mobile versions\"><b></b><i></i><span>(Desktop, Console and Mobile versions)</span></span></span></span>"
        },
        "ingredients": {
          "value": "<ul><li><span class=\"i\"><linked>[img:Nebula Brick]</linked><span><span><linked>Nebula Brick</linked></span><span class=\"eico s i1 i2 i4\" title=\"Desktop, Console and Mobile versions\"><b></b><i></i><span>(Desktop, Console and Mobile versions)</span></span></span></span><span class=\"am\">4</span></li></ul>"
        }
      },
      {
        "result": {
          "rowspan": 1,
          "value": "<span class=\"i multi-line\"><linked>[img:Nebula Chandelier]</linked><span><span><linked>Nebula Chandelier</linked></span><span class=\"eico s i1 i2 i4\" title=\"Desktop, Console and Mobile versions\"><b></b><i></i><span>(Desktop, Console and Mobile versions)</span></span></span></span>"
        },
        "ingredients": {
          "value": "<ul><li><span class=\"i\"><linked>[img:Nebula Brick]</linked><span><span><linked>Nebula Brick</linked></span><span class=\"eico s i1 i2 i4\" title=\"Desktop, Console and Mobile versions\"><b></b><i></i><span>(Desktop, Console and Mobile versions)</span></span></span></span><span class=\"am\">4</span></li><li><span class=\"i\"><linked>[img:Torch]</linked><span><span><linked>Torch</linked></span></span></span><span class=\"am\">4</span></li><li><span class=\"i\"><linked>[img:Chain]</linked><span><span><linked>Chain</linked></span></span></span></li></ul>"
        }
      },
      {
        "result": {
          "rowspan": 1,
          "value": "<span class=\"i multi-line\"><linked>[img:Nebula Chest]</linked><span><span><linked>Nebula Chest</linked></span><span class=\"eico s i1 i2 i4\" title=\"Desktop, Console and Mobile versions\"><b></b><i></i><span>(Desktop, Console and Mobile versions)</span></span></span></span>"
        },
        "ingredients": {
          "value": "<ul><li><span class=\"i\"><linked>[img:Nebula Brick]</linked><span><span><linked>Nebula Brick</linked></span><span class=\"eico s i1 i2 i4\" title=\"Desktop, Console and Mobile versions\"><b></b><i></i><span>(Desktop, Console and Mobile versions)</span></span></span></span><span class=\"am\">8</span></li><li><span class=\"i\"><linked>[img:Any Iron Bar]</linked><span><span><linked>Any Iron Bar</linked></span></span></span><span class=\"am\">2</span></li></ul>"
        }
      },
      {
        "result": {
          "rowspan": 1,
          "value": "<span class=\"i multi-line\"><linked>[img:Nebula Clock]</linked><span><span><linked>Nebula Clock</linked></span><span class=\"eico s i1 i2 i4\" title=\"Desktop, Console and Mobile versions\"><b></b><i></i><span>(Desktop, Console and Mobile versions)</span></span></span></span>"
        },
        "ingredients": {
          "value": "<ul><li><span class=\"i\"><linked>[img:Nebula Brick]</linked><span><span><linked>Nebula Brick</linked></span><span class=\"eico s i1 i2 i4\" title=\"Desktop, Console and Mobile versions\"><b></b><i></i><span>(Desktop, Console and Mobile versions)</span></span></span></span><span class=\"am\">10</span></li><li><span class=\"i\"><linked>[img:Any Iron Bar]</linked><span><span><linked>Any Iron Bar</linked></span></span></span><span class=\"am\">3</span></li><li><span class=\"i\"><linked>[img:Glass]</linked><span><span><linked>Glass</linked></span></span></span><span class=\"am\">6</span></li></ul>"
        }
      },
      {
        "result": {
          "rowspan": 1,
          "value": "<span class=\"i multi-line\"><linked>[img:Nebula Door]</linked><span><span><linked>Nebula Door</linked></span><span class=\"eico s i1 i2 i4\" title=\"Desktop, Console and Mobile versions\"><b></b><i></i><span>(Desktop, Console and Mobile versions)</span></span></span></span>"
        },
        "ingredients": {
          "value": "<ul><li><span class=\"i\"><linked>[img:Nebula Brick]</linked><span><span><linked>Nebula Brick</linked></span><span class=\"eico s i1 i2 i4\" title=\"Desktop, Console and Mobile versions\"><b></b><i></i><span>(Desktop, Console and Mobile versions)</span></span></span></span><span class=\"am\">6</span></li></ul>"
        }
      },
      {
        "result": {
          "rowspan": 1,
          "value": "<span class=\"i multi-line\"><linked>[img:Nebula Dresser]</linked><span><span><linked>Nebula Dresser</linked></span><span class=\"eico s i1 i2 i4\" title=\"Desktop, Console and Mobile versions\"><b></b><i></i><span>(Desktop, Console and Mobile versions)</span></span></span></span>"
        },
        "ingredients": {
          "value": "<ul><li><span class=\"i\"><linked>[img:Nebula Brick]</linked><span><span><linked>Nebula Brick</linked></span><span class=\"eico s i1 i2 i4\" title=\"Desktop, Console and Mobile versions\"><b></b><i></i><span>(Desktop, Console and Mobile versions)</span></span></span></span><span class=\"am\">16</span></li></ul>"
        }
      },
      {
        "result": {
          "rowspan": 1,
          "value": "<span class=\"i multi-line\"><linked>[img:Nebula Lamp]</linked><span><span><linked>Nebula Lamp</linked></span><span class=\"eico s i1 i2 i4\" title=\"Desktop, Console and Mobile versions\"><b></b><i></i><span>(Desktop, Console and Mobile versions)</span></span></span></span>"
        },
        "ingredients": {
          "value": "<ul><li><span class=\"i\"><linked>[img:Torch]</linked><span><span><linked>Torch</linked></span></span></span></li><li><span class=\"i\"><linked>[img:Nebula Brick]</linked><span><span><linked>Nebula Brick</linked></span><span class=\"eico s i1 i2 i4\" title=\"Desktop, Console and Mobile versions\"><b></b><i></i><span>(Desktop, Console and Mobile versions)</span></span></span></span><span class=\"am\">3</span></li></ul>"
        }
      },
      {
        "result": {
          "rowspan": 1,
          "value": "<span class=\"i multi-line\"><linked>[img:Nebula Lantern]</linked><span><span><linked>Nebula Lantern</linked></span><span class=\"eico s i1 i2 i4\" title=\"Desktop, Console and Mobile versions\"><b></b><i></i><span>(Desktop, Console and Mobile versions)</span></span></span></span>"
        },
        "ingredients": {
          "value": "<ul><li><span class=\"i\"><linked>[img:Nebula Brick]</linked><span><span><linked>Nebula Brick</linked></span><span class=\"eico s i1 i2 i4\" title=\"Desktop, Console and Mobile versions\"><b></b><i></i><span>(Desktop, Console and Mobile versions)</span></span></span></span><span class=\"am\">6</span></li><li><span class=\"i\"><linked>[img:Torch]</linked><span><span><linked>Torch</linked></span></span></span></li></ul>"
        }
      },
      {
        "result": {
          "rowspan": 1,
          "value": "<span class=\"i multi-line\"><linked>[img:Nebula Piano]</linked><span><span><linked>Nebula Piano</linked></span><span class=\"eico s i1 i2 i4\" title=\"Desktop, Console and Mobile versions\"><b></b><i></i><span>(Desktop, Console and Mobile versions)</span></span></span></span>"
        },
        "ingredients": {
          "value": "<ul><li><span class=\"i\"><linked>[img:Nebula Brick]</linked><span><span><linked>Nebula Brick</linked></span><span class=\"eico s i1 i2 i4\" title=\"Desktop, Console and Mobile versions\"><b></b><i></i><span>(Desktop, Console and Mobile versions)</span></span></span></span><span class=\"am\">15</span></li><li><span class=\"i\"><linked>[img:Bone]</linked><span><span><linked>Bone</linked></span></span></span><span class=\"am\">4</span></li><li><span class=\"i\"><linked>[img:Book]</linked><span><span><linked>Book</linked></span></span></span></li></ul>"
        }
      },
      {
        "result": {
          "rowspan": 1,
          "value": "<span class=\"i multi-line\"><linked>[img:Nebula Sink]</linked><span><span><linked>Nebula Sink</linked></span></span></span>"
        },
        "ingredients": {
          "value": "<ul><li><span class=\"i\"><linked>[img:Nebula Brick]</linked><span><span><linked>Nebula Brick</linked></span><span class=\"eico s i1 i2 i4\" title=\"Desktop, Console and Mobile versions\"><b></b><i></i><span>(Desktop, Console and Mobile versions)</span></span></span></span><span class=\"am\">6</span></li><li><span class=\"i\"><linked>[img:Water Bucket]</linked><span><span><linked>Water Bucket</linked></span></span></span></li></ul>"
        }
      },
      {
        "result": {
          "rowspan": 1,
          "value": "<span class=\"i multi-line\"><linked>[img:Nebula Sofa]</linked><span><span><linked>Nebula Sofa</linked></span><span class=\"eico s i1 i2 i4\" title=\"Desktop, Console and Mobile versions\"><b></b><i></i><span>(Desktop, Console and Mobile versions)</span></span></span></span>"
        },
        "ingredients": {
          "value": "<ul><li><span class=\"i\"><linked>[img:Nebula Brick]</linked><span><span><linked>Nebula Brick</linked></span><span class=\"eico s i1 i2 i4\" title=\"Desktop, Console and Mobile versions\"><b></b><i></i><span>(Desktop, Console and Mobile versions)</span></span></span></span><span class=\"am\">5</span></li><li><span class=\"i\"><linked>[img:Silk]</linked><span><span><linked>Silk</linked></span></span></span><span class=\"am\">2</span></li></ul>"
        }
      },
      {
        "result": {
          "rowspan": 1,
          "value": "<span class=\"i multi-line\"><linked>[img:Nebula Table]</linked><span><span><linked>Nebula Table</linked></span><span class=\"eico s i1 i2 i4\" title=\"Desktop, Console and Mobile versions\"><b></b><i></i><span>(Desktop, Console and Mobile versions)</span></span></span></span>"
        },
        "ingredients": {
          "value": "<ul><li><span class=\"i\"><linked>[img:Nebula Brick]</linked><span><span><linked>Nebula Brick</linked></span><span class=\"eico s i1 i2 i4\" title=\"Desktop, Console and Mobile versions\"><b></b><i></i><span>(Desktop, Console and Mobile versions)</span></span></span></span><span class=\"am\">8</span></li></ul>"
        }
      },
      {
        "result": {
          "rowspan": 1,
          "value": "<span class=\"i multi-line\"><linked>[img:Nebula Toilet]</linked><span><span><linked>Nebula Toilet</linked></span><span class=\"eico s i1 i2 i4\" title=\"Desktop, Console and Mobile versions\"><b></b><i></i><span>(Desktop, Console and Mobile versions)</span></span></span></span>"
        },
        "ingredients": {
          "value": "<ul><li><span class=\"i\"><linked>[img:Nebula Brick]</linked><span><span><linked>Nebula Brick</linked></span><span class=\"eico s i1 i2 i4\" title=\"Desktop, Console and Mobile versions\"><b></b><i></i><span>(Desktop, Console and Mobile versions)</span></span></span></span><span class=\"am\">6</span></li></ul>"
        }
      },
      {
        "result": {
          "rowspan": 1,
          "value": "<span class=\"i multi-line\"><linked>[img:Nebula Work Bench]</linked><span><span><linked>Nebula Work Bench</linked></span><span class=\"eico s i1 i2 i4\" title=\"Desktop, Console and Mobile versions\"><b></b><i></i><span>(Desktop, Console and Mobile versions)</span></span></span></span>"
        },
        "ingredients": {
          "value": "<ul><li><span class=\"i\"><linked>[img:Nebula Brick]</linked><span><span><linked>Nebula Brick</linked></span><span class=\"eico s i1 i2 i4\" title=\"Desktop, Console and Mobile versions\"><b></b><i></i><span>(Desktop, Console and Mobile versions)</span></span></span></span><span class=\"am\">10</span></li></ul>"
        }
      },
      {
        "result": {
          "rowspan": 1,
          "value": "<span class=\"i multi-line\"><linked>[img:Nebula Platform]</linked><span><span><linked>Nebula Platform</linked></span><span class=\"eico s i1 i2 i4\" title=\"Desktop, Console and Mobile versions\"><b></b><i></i><span>(Desktop, Console and Mobile versions)</span></span></span></span><span class=\"am\">2</span>"
        },
        "ingredients": {
          "value": "<ul><li><span class=\"i\"><linked>[img:Nebula Brick]</linked><span><span><linked>Nebula Brick</linked></span><span class=\"eico s i1 i2 i4\" title=\"Desktop, Console and Mobile versions\"><b></b><i></i><span>(Desktop, Console and Mobile versions)</span></span></span></span></li></ul>"
        },
        "station": {
          "rowspan": 1,
          "value": "<linked>By Hand</linked>"
        }
      },
      {
        "result": {
          "rowspan": 1,
          "value": "<span class=\"i multi-line\"><linked>[img:Nebula Brick Wall]</linked><span><span><linked>Nebula Brick Wall</linked></span><span class=\"eico s i1 i2 i4\" title=\"Desktop, Console and Mobile versions\"><b></b><i></i><span>(Desktop, Console and Mobile versions)</span></span></span></span><span class=\"am\">4</span>"
        },
        "ingredients": {
          "value": "<ul><li><span class=\"i\"><linked>[img:Nebula Brick]</linked><span><span><linked>Nebula Brick</linked></span><span class=\"eico s i1 i2 i4\" title=\"Desktop, Console and Mobile versions\"><b></b><i></i><span>(Desktop, Console and Mobile versions)</span></span></span></span></li></ul>"
        },
        "station": {
          "rowspan": 1,
          "value": "<span class=\"i\"><linked>[img:Work Bench]</linked><span><span><linked>Work Bench</linked></span></span></span>"
        }
      }
    ]
  }
}