{
  "type": "furnitures",
  "title": "Pin Flags",
  "summaries": [
    "<b>Pin Flags</b> are <linked>furniture</linked> items used in <linked>golfing</linked>. They are purely decorative and come in multiple colors. They can be purchased from the <linked>Golfer</linked> for <span class=\"coin\" title=\"20 Silver Coins\" data-sort-value=\"2000\"><span class=\"sc\">20<i> SC</i></span></span> each."
  ],
  "statistics": {
    "Placeable": "<span class=\"t-yes\">✔️</span> <span class=\"small-bold\">(1 wide × 2 high)</span>",
    "Use time": "15 <span class=\"usetime\">(Very fast)</span>",
    "Rarity": "<span class=\"rarity\"><linked>[img:Rarity level: 0]</linked></span>",
    "Buy": "<span class=\"coin\" title=\"20 Silver Coins\" data-sort-value=\"2000\"><span class=\"sc\">20<i> SC</i></span></span>",
    "Sell": "<span class=\"coin\" title=\"4 Silver Coins\" data-sort-value=\"400\"><span class=\"sc\">4<i> SC</i></span></span>",
    "Research": "<abbr class=\"mode-exclusive journey\" title=\"Journey Mode\">1 required</abbr>"
  },
  "crafts": {}
}