{
  "type": "accessories",
  "title": "Royal Gel",
  "summaries": [
    "The <b>Royal Gel</b> is a <linked>pre-Hardmode</linked> <linked>accessory</linked> that pacifies most <linked>slimes</linked> when equipped, causing them to no longer pursue the player, and will deal no contact damage or fire projectiles, even if the player deals damage to them. The Royal Gel is always dropped from <linked>King Slime</linked>'s <linked>Treasure Bag</linked> in <linked>Expert Mode</linked>.",
    "This does not apply to the following slimes:",
    "<ul><li><linked>King Slime</linked> and his <linked>Spiked Slimes</linked>, though the normal <linked>Blue Slimes</linked> that King Slime spawns remain docile.</li><li><linked>Queen Slime</linked> and her <linked>Bouncy Slimes</linked>, <linked>Crystal Slimes</linked>, and <linked>Heavenly Slimes</linked>.</li></ul>"
  ],
  "statistics": {
    "Tooltip": "<i><span class=\"gameText\">Slimes become friendly</span></i>",
    "Rarity": "<span class=\"rarity\"><linked>[img:Rarity level: Rainbow]</linked></span>",
    "Sell": "<span class=\"coin\" title=\"2 Gold Coins\" data-sort-value=\"20000\"><span class=\"gc\">2<i> GC</i></span></span>",
    "Research": "<abbr class=\"mode-exclusive journey\" title=\"Journey Mode\">1 required</abbr>"
  },
  "crafts": {}
}