{
  "type": "blocks",
  "title": "Gemstone Blocks",
  "summaries": [
    "<b>Gemstone Blocks</b> are types of <linked>blocks</linked> which are naturally generated in the <linked>Underground</linked> and <linked>Cavern</linked> <linked>layers</linked>. When mined, they drop one of their respective <linked>gems</linked>. They can be mined by any <linked>pickaxe</linked> or <linked>drill</linked>, or destroyed by <linked>explosives</linked>.",
    "On the <linked>[img:Desktop version]</linked><linked> Desktop</linked>, <linked>[img:Console version]</linked><linked> Console</linked>, and <linked>[img:Mobile version]</linked><linked> Mobile</linked> versions, they can also be crafted at a <linked>Heavy Work Bench</linked> in the <linked>Graveyard</linked> <linked>Mini-Biome</linked>."
  ],
  "statistics": {
    "Placeable": "<span class=\"t-yes\">✔️</span> <span class=\"small-bold\">(1 wide × 1 high)</span>",
    "Use time": "15 <span class=\"usetime\">(Very fast)</span>",
    "Rarity": "<span class=\"rarity\"><linked>[img:Rarity level: 0]</linked></span>",
    "Sell": "<span class=\"coin\" title=\"1 Silver Coin\" data-sort-value=\"100\"><span class=\"sc\">1<i> SC</i></span></span>",
    "Research": "<abbr class=\"mode-exclusive journey\" title=\"Journey Mode\">100 required</abbr>"
  },
  "crafts": {
    "<span class=\"mw-headline\" id=\"Recipes\">Recipes</span>": [
      {
        "result": {
          "rowspan": 1,
          "value": "<span class=\"i multi-line\">[img:Amber Stone Block]<span><span title=\"Amber Stone Block\">Amber Stone Block</span><span class=\"eico s i1 i2 i4\" title=\"Desktop, Console and Mobile versions\"><b></b><i></i><span>(Desktop, Console and Mobile versions)</span></span></span></span>"
        },
        "ingredients": {
          "value": "<ul><li><span class=\"i\"><linked>[img:Amber]</linked><span><span><linked>Amber</linked></span></span></span></li><li><span class=\"i\"><linked>[img:Stone Block]</linked><span><span><linked>Stone Block</linked></span></span></span></li></ul>"
        },
        "station": {
          "rowspan": 7,
          "value": "<span class=\"i -w\"><linked>[img:Heavy Work Bench]</linked><span><span><linked>Heavy Work Bench</linked></span><span class=\"eico s i1 i2 i3 i4\" title=\"Desktop, Console, Old-gen console and Mobile versions\"><b></b><i></i><span>(Desktop, Console, Old-gen console and Mobile versions)</span></span></span></span> <b>and</b> <span class=\"i -w\"><span><span><linked>Ecto Mist</linked></span><span class=\"eico s i1 i2 i4\" title=\"Desktop, Console and Mobile versions\"><b></b><i></i><span>(Desktop, Console and Mobile versions)</span></span></span></span>"
        }
      },
      {
        "result": {
          "rowspan": 1,
          "value": "<span class=\"i multi-line\">[img:Amethyst Stone Block]<span><span title=\"Amethyst Stone Block\">Amethyst Stone Block</span><span class=\"eico s i1 i2 i4\" title=\"Desktop, Console and Mobile versions\"><b></b><i></i><span>(Desktop, Console and Mobile versions)</span></span></span></span>"
        },
        "ingredients": {
          "value": "<ul><li><span class=\"i\"><linked>[img:Amethyst]</linked><span><span><linked>Amethyst</linked></span></span></span></li><li><span class=\"i\"><linked>[img:Stone Block]</linked><span><span><linked>Stone Block</linked></span></span></span></li></ul>"
        }
      },
      {
        "result": {
          "rowspan": 1,
          "value": "<span class=\"i multi-line\">[img:Diamond Stone Block]<span><span title=\"Diamond Stone Block\">Diamond Stone Block</span><span class=\"eico s i1 i2 i4\" title=\"Desktop, Console and Mobile versions\"><b></b><i></i><span>(Desktop, Console and Mobile versions)</span></span></span></span>"
        },
        "ingredients": {
          "value": "<ul><li><span class=\"i\"><linked>[img:Diamond]</linked><span><span><linked>Diamond</linked></span></span></span></li><li><span class=\"i\"><linked>[img:Stone Block]</linked><span><span><linked>Stone Block</linked></span></span></span></li></ul>"
        }
      },
      {
        "result": {
          "rowspan": 1,
          "value": "<span class=\"i multi-line\">[img:Emerald Stone Block]<span><span title=\"Emerald Stone Block\">Emerald Stone Block</span><span class=\"eico s i1 i2 i4\" title=\"Desktop, Console and Mobile versions\"><b></b><i></i><span>(Desktop, Console and Mobile versions)</span></span></span></span>"
        },
        "ingredients": {
          "value": "<ul><li><span class=\"i\"><linked>[img:Emerald]</linked><span><span><linked>Emerald</linked></span></span></span></li><li><span class=\"i\"><linked>[img:Stone Block]</linked><span><span><linked>Stone Block</linked></span></span></span></li></ul>"
        }
      },
      {
        "result": {
          "rowspan": 1,
          "value": "<span class=\"i multi-line\">[img:Ruby Stone Block]<span><span title=\"Ruby Stone Block\">Ruby Stone Block</span><span class=\"eico s i1 i2 i4\" title=\"Desktop, Console and Mobile versions\"><b></b><i></i><span>(Desktop, Console and Mobile versions)</span></span></span></span>"
        },
        "ingredients": {
          "value": "<ul><li><span class=\"i\"><linked>[img:Ruby]</linked><span><span><linked>Ruby</linked></span></span></span></li><li><span class=\"i\"><linked>[img:Stone Block]</linked><span><span><linked>Stone Block</linked></span></span></span></li></ul>"
        }
      },
      {
        "result": {
          "rowspan": 1,
          "value": "<span class=\"i multi-line\">[img:Sapphire Stone Block]<span><span title=\"Sapphire Stone Block\">Sapphire Stone Block</span><span class=\"eico s i1 i2 i4\" title=\"Desktop, Console and Mobile versions\"><b></b><i></i><span>(Desktop, Console and Mobile versions)</span></span></span></span>"
        },
        "ingredients": {
          "value": "<ul><li><span class=\"i\"><linked>[img:Sapphire]</linked><span><span><linked>Sapphire</linked></span></span></span></li><li><span class=\"i\"><linked>[img:Stone Block]</linked><span><span><linked>Stone Block</linked></span></span></span></li></ul>"
        }
      },
      {
        "result": {
          "rowspan": 1,
          "value": "<span class=\"i multi-line\">[img:Topaz Stone Block]<span><span title=\"Topaz Stone Block\">Topaz Stone Block</span><span class=\"eico s i1 i2 i4\" title=\"Desktop, Console and Mobile versions\"><b></b><i></i><span>(Desktop, Console and Mobile versions)</span></span></span></span>"
        },
        "ingredients": {
          "value": "<ul><li><span class=\"i\"><linked>[img:Topaz]</linked><span><span><linked>Topaz</linked></span></span></span></li><li><span class=\"i\"><linked>[img:Stone Block]</linked><span><span><linked>Stone Block</linked></span></span></span></li></ul>"
        }
      },
      {
        "result": {
          "rowspan": 1,
          "value": "<span class=\"i multi-line\">[img:Amber Stone Block]<span><span title=\"Amber Stone Block\">Amber Stone Block</span><span class=\"eico s i1 i2 i4\" title=\"Desktop, Console and Mobile versions\"><b></b><i></i><span>(Desktop, Console and Mobile versions)</span></span></span></span>"
        },
        "ingredients": {
          "value": "<ul><li><span class=\"i\"><linked>[img:Amber Stone Wall]</linked><span><span><linked>Amber Stone Wall</linked></span></span></span><span class=\"am\">4</span></li></ul>"
        },
        "station": {
          "rowspan": 7,
          "value": "<span class=\"i\"><linked>[img:Work Bench]</linked><span><span><linked>Work Bench</linked></span></span></span>"
        }
      },
      {
        "result": {
          "rowspan": 1,
          "value": "<span class=\"i multi-line\">[img:Amethyst Stone Block]<span><span title=\"Amethyst Stone Block\">Amethyst Stone Block</span><span class=\"eico s i1 i2 i4\" title=\"Desktop, Console and Mobile versions\"><b></b><i></i><span>(Desktop, Console and Mobile versions)</span></span></span></span>"
        },
        "ingredients": {
          "value": "<ul><li><span class=\"i\"><linked>[img:Amethyst Stone Wall]</linked><span><span><linked>Amethyst Stone Wall</linked></span></span></span><span class=\"am\">4</span></li></ul>"
        }
      },
      {
        "result": {
          "rowspan": 1,
          "value": "<span class=\"i multi-line\">[img:Diamond Stone Block]<span><span title=\"Diamond Stone Block\">Diamond Stone Block</span><span class=\"eico s i1 i2 i4\" title=\"Desktop, Console and Mobile versions\"><b></b><i></i><span>(Desktop, Console and Mobile versions)</span></span></span></span>"
        },
        "ingredients": {
          "value": "<ul><li><span class=\"i\"><linked>[img:Diamond Stone Wall]</linked><span><span><linked>Diamond Stone Wall</linked></span></span></span><span class=\"am\">4</span></li></ul>"
        }
      },
      {
        "result": {
          "rowspan": 1,
          "value": "<span class=\"i multi-line\">[img:Emerald Stone Block]<span><span title=\"Emerald Stone Block\">Emerald Stone Block</span><span class=\"eico s i1 i2 i4\" title=\"Desktop, Console and Mobile versions\"><b></b><i></i><span>(Desktop, Console and Mobile versions)</span></span></span></span>"
        },
        "ingredients": {
          "value": "<ul><li><span class=\"i\"><linked>[img:Emerald Stone Wall]</linked><span><span><linked>Emerald Stone Wall</linked></span></span></span><span class=\"am\">4</span></li></ul>"
        }
      },
      {
        "result": {
          "rowspan": 1,
          "value": "<span class=\"i multi-line\">[img:Ruby Stone Block]<span><span title=\"Ruby Stone Block\">Ruby Stone Block</span><span class=\"eico s i1 i2 i4\" title=\"Desktop, Console and Mobile versions\"><b></b><i></i><span>(Desktop, Console and Mobile versions)</span></span></span></span>"
        },
        "ingredients": {
          "value": "<ul><li><span class=\"i\"><linked>[img:Ruby Stone Wall]</linked><span><span><linked>Ruby Stone Wall</linked></span></span></span><span class=\"am\">4</span></li></ul>"
        }
      },
      {
        "result": {
          "rowspan": 1,
          "value": "<span class=\"i multi-line\">[img:Sapphire Stone Block]<span><span title=\"Sapphire Stone Block\">Sapphire Stone Block</span><span class=\"eico s i1 i2 i4\" title=\"Desktop, Console and Mobile versions\"><b></b><i></i><span>(Desktop, Console and Mobile versions)</span></span></span></span>"
        },
        "ingredients": {
          "value": "<ul><li><span class=\"i\"><linked>[img:Sapphire Stone Wall]</linked><span><span><linked>Sapphire Stone Wall</linked></span></span></span><span class=\"am\">4</span></li></ul>"
        }
      },
      {
        "result": {
          "rowspan": 1,
          "value": "<span class=\"i multi-line\">[img:Topaz Stone Block]<span><span title=\"Topaz Stone Block\">Topaz Stone Block</span><span class=\"eico s i1 i2 i4\" title=\"Desktop, Console and Mobile versions\"><b></b><i></i><span>(Desktop, Console and Mobile versions)</span></span></span></span>"
        },
        "ingredients": {
          "value": "<ul><li><span class=\"i\"><linked>[img:Topaz Stone Wall]</linked><span><span><linked>Topaz Stone Wall</linked></span></span></span><span class=\"am\">4</span></li></ul>"
        }
      }
    ],
    "<span class=\"mw-headline\" id=\"Used_in\">Used in</span>": [
      {
        "result": {
          "rowspan": 1,
          "value": "<span class=\"i multi-line\"><linked>[img:Amber Stone Wall]</linked><span><span><linked>Amber Stone Wall</linked></span></span></span><span class=\"am\">4</span>"
        },
        "ingredients": {
          "value": "<ul><li><span class=\"i\"><linked>[img:Amber Stone Block]</linked><span><span><linked>Amber Stone Block</linked></span><span class=\"eico s i1 i2 i4\" title=\"Desktop, Console and Mobile versions\"><b></b><i></i><span>(Desktop, Console and Mobile versions)</span></span></span></span></li></ul>"
        },
        "station": {
          "rowspan": 7,
          "value": "<span class=\"i\"><linked>[img:Work Bench]</linked><span><span><linked>Work Bench</linked></span></span></span> <b>and</b> <span class=\"i -w\"><span><span><linked>Ecto Mist</linked></span><span class=\"eico s i1 i2 i4\" title=\"Desktop, Console and Mobile versions\"><b></b><i></i><span>(Desktop, Console and Mobile versions)</span></span></span></span>"
        }
      },
      {
        "result": {
          "rowspan": 1,
          "value": "<span class=\"i multi-line\"><linked>[img:Amethyst Stone Wall]</linked><span><span><linked>Amethyst Stone Wall</linked></span></span></span><span class=\"am\">4</span>"
        },
        "ingredients": {
          "value": "<ul><li><span class=\"i\"><linked>[img:Amethyst Stone Block]</linked><span><span><linked>Amethyst Stone Block</linked></span><span class=\"eico s i1 i2 i4\" title=\"Desktop, Console and Mobile versions\"><b></b><i></i><span>(Desktop, Console and Mobile versions)</span></span></span></span></li></ul>"
        }
      },
      {
        "result": {
          "rowspan": 1,
          "value": "<span class=\"i multi-line\"><linked>[img:Diamond Stone Wall]</linked><span><span><linked>Diamond Stone Wall</linked></span></span></span><span class=\"am\">4</span>"
        },
        "ingredients": {
          "value": "<ul><li><span class=\"i\"><linked>[img:Diamond Stone Block]</linked><span><span><linked>Diamond Stone Block</linked></span><span class=\"eico s i1 i2 i4\" title=\"Desktop, Console and Mobile versions\"><b></b><i></i><span>(Desktop, Console and Mobile versions)</span></span></span></span></li></ul>"
        }
      },
      {
        "result": {
          "rowspan": 1,
          "value": "<span class=\"i multi-line\"><linked>[img:Emerald Stone Wall]</linked><span><span><linked>Emerald Stone Wall</linked></span></span></span><span class=\"am\">4</span>"
        },
        "ingredients": {
          "value": "<ul><li><span class=\"i\"><linked>[img:Emerald Stone Block]</linked><span><span><linked>Emerald Stone Block</linked></span><span class=\"eico s i1 i2 i4\" title=\"Desktop, Console and Mobile versions\"><b></b><i></i><span>(Desktop, Console and Mobile versions)</span></span></span></span></li></ul>"
        }
      },
      {
        "result": {
          "rowspan": 1,
          "value": "<span class=\"i multi-line\"><linked>[img:Ruby Stone Wall]</linked><span><span><linked>Ruby Stone Wall</linked></span></span></span><span class=\"am\">4</span>"
        },
        "ingredients": {
          "value": "<ul><li><span class=\"i\"><linked>[img:Ruby Stone Block]</linked><span><span><linked>Ruby Stone Block</linked></span><span class=\"eico s i1 i2 i4\" title=\"Desktop, Console and Mobile versions\"><b></b><i></i><span>(Desktop, Console and Mobile versions)</span></span></span></span></li></ul>"
        }
      },
      {
        "result": {
          "rowspan": 1,
          "value": "<span class=\"i multi-line\"><linked>[img:Sapphire Stone Wall]</linked><span><span><linked>Sapphire Stone Wall</linked></span></span></span><span class=\"am\">4</span>"
        },
        "ingredients": {
          "value": "<ul><li><span class=\"i\"><linked>[img:Sapphire Stone Block]</linked><span><span><linked>Sapphire Stone Block</linked></span><span class=\"eico s i1 i2 i4\" title=\"Desktop, Console and Mobile versions\"><b></b><i></i><span>(Desktop, Console and Mobile versions)</span></span></span></span></li></ul>"
        }
      },
      {
        "result": {
          "rowspan": 1,
          "value": "<span class=\"i multi-line\"><linked>[img:Topaz Stone Wall]</linked><span><span><linked>Topaz Stone Wall</linked></span></span></span><span class=\"am\">4</span>"
        },
        "ingredients": {
          "value": "<ul><li><span class=\"i\"><linked>[img:Topaz Stone Block]</linked><span><span><linked>Topaz Stone Block</linked></span><span class=\"eico s i1 i2 i4\" title=\"Desktop, Console and Mobile versions\"><b></b><i></i><span>(Desktop, Console and Mobile versions)</span></span></span></span></li></ul>"
        }
      }
    ]
  }
}