{
  "type": "furnitures",
  "title": "Sinks",
  "summaries": [
    "The <b>Sink</b> is a type of <linked>furniture</linked> item and <linked>crafting station</linked>. It does <i>not</i> fulfill a <linked>house</linked>'s flat surface or comfort item requirement, however, it can be used to craft items that require <linked>water</linked> as a crafting station.",
    "There are currently 44 Sink types, all being functionally identical."
  ],
  "statistics": {
    "Placeable": "<span class=\"t-yes\">✔️</span> <span class=\"small-bold\">(2 wide × 2 high)</span>",
    "Use time": "10 <span class=\"usetime\">(Very fast)</span>",
    "Tooltip": "<i><span class=\"gameText\">'Spider-sink, Spider-sink, does whatever a spider can...'</span> (Spider Sink)</i>",
    "Rarity": "<span class=\"rarity\"><linked>[img:Rarity level: 0]</linked></span>",
    "Sell": "<span class=\"coin\" title=\"60 Copper Coins\" data-sort-value=\"60\"><span class=\"cc\">60 <i>CC</i></span></span><br><span class=\"coin\" title=\"2 Gold Coins\" data-sort-value=\"20000\"><span class=\"gc\">2<i> GC</i></span></span> (Golden Sink)",
    "Research": "<abbr class=\"mode-exclusive journey\" title=\"Journey Mode\">1 required</abbr>"
  },
  "crafts": {
    "<span class=\"mw-headline\" id=\"Recipes\">Recipes</span>": [
      {
        "result": {
          "rowspan": 1,
          "value": "<span class=\"i -w multi-line\">[img:Nebula Sink]<span><span title=\"Nebula Sink\">Nebula Sink</span><span class=\"id\">Internal <linked>Item ID</linked>: 4202</span></span></span>"
        },
        "ingredients": {
          "value": "<ul><li><span class=\"i\"><linked>[img:Nebula Brick]</linked><span><span><linked>Nebula Brick</linked></span><span class=\"eico s i1 i2 i4\" title=\"Desktop, Console and Mobile versions\"><b></b><i></i><span>(Desktop, Console and Mobile versions)</span></span></span></span><span class=\"am\">6</span></li><li><span class=\"i\"><linked>[img:Water Bucket]</linked><span><span><linked>Water Bucket</linked></span></span></span></li></ul>"
        },
        "station": {
          "rowspan": 4,
          "value": "<span class=\"i -w\"><linked>[img:Ancient Manipulator]</linked><span><span><linked>Ancient Manipulator</linked></span><span class=\"eico s i1 i2 i4\" title=\"Desktop, Console and Mobile versions\"><b></b><i></i><span>(Desktop, Console and Mobile versions)</span></span></span></span>"
        }
      },
      {
        "result": {
          "rowspan": 1,
          "value": "<span class=\"i -w multi-line\">[img:Solar Sink]<span><span title=\"Solar Sink\">Solar Sink</span><span class=\"eico s i1 i2 i4\" title=\"Desktop, Console and Mobile versions\"><b></b><i></i><span>(Desktop, Console and Mobile versions)</span></span><span class=\"id\">Internal <linked>Item ID</linked>: 4160</span></span></span>"
        },
        "ingredients": {
          "value": "<ul><li><span class=\"i\"><linked>[img:Solar Brick]</linked><span><span><linked>Solar Brick</linked></span><span class=\"eico s i1 i2 i4\" title=\"Desktop, Console and Mobile versions\"><b></b><i></i><span>(Desktop, Console and Mobile versions)</span></span></span></span><span class=\"am\">6</span></li><li><span class=\"i\"><linked>[img:Water Bucket]</linked><span><span><linked>Water Bucket</linked></span></span></span></li></ul>"
        }
      },
      {
        "result": {
          "rowspan": 1,
          "value": "<span class=\"i -w multi-line\">[img:Stardust Sink]<span><span title=\"Stardust Sink\">Stardust Sink</span><span class=\"eico s i1 i2 i4\" title=\"Desktop, Console and Mobile versions\"><b></b><i></i><span>(Desktop, Console and Mobile versions)</span></span><span class=\"id\">Internal <linked>Item ID</linked>: 4223</span></span></span>"
        },
        "ingredients": {
          "value": "<ul><li><span class=\"i\"><linked>[img:Stardust Brick]</linked><span><span><linked>Stardust Brick</linked></span><span class=\"eico s i1 i2 i4\" title=\"Desktop, Console and Mobile versions\"><b></b><i></i><span>(Desktop, Console and Mobile versions)</span></span></span></span><span class=\"am\">6</span></li><li><span class=\"i\"><linked>[img:Water Bucket]</linked><span><span><linked>Water Bucket</linked></span></span></span></li></ul>"
        }
      },
      {
        "result": {
          "rowspan": 1,
          "value": "<span class=\"i -w multi-line\">[img:Vortex Sink]<span><span title=\"Vortex Sink\">Vortex Sink</span><span class=\"eico s i1 i2 i4\" title=\"Desktop, Console and Mobile versions\"><b></b><i></i><span>(Desktop, Console and Mobile versions)</span></span><span class=\"id\">Internal <linked>Item ID</linked>: 4181</span></span></span>"
        },
        "ingredients": {
          "value": "<ul><li><span class=\"i\"><linked>[img:Vortex Brick]</linked><span><span><linked>Vortex Brick</linked></span><span class=\"eico s i1 i2 i4\" title=\"Desktop, Console and Mobile versions\"><b></b><i></i><span>(Desktop, Console and Mobile versions)</span></span></span></span><span class=\"am\">6</span></li><li><span class=\"i\"><linked>[img:Water Bucket]</linked><span><span><linked>Water Bucket</linked></span></span></span></li></ul>"
        }
      },
      {
        "result": {
          "rowspan": 1,
          "value": "<span class=\"i -w multi-line\">[img:Bone Sink]<span><span title=\"Bone Sink\">Bone Sink</span><span class=\"eico s i1 i2 i4\" title=\"Desktop, Console and Mobile versions\"><b></b><i></i><span>(Desktop, Console and Mobile versions)</span></span><span class=\"id\">Internal <linked>Item ID</linked>: 2831</span></span></span>"
        },
        "ingredients": {
          "value": "<ul><li><span class=\"i\"><linked>[img:Bone]</linked><span><span><linked>Bone</linked></span></span></span><span class=\"am\">6</span></li><li><span class=\"i\"><linked>[img:Water Bucket]</linked><span><span><linked>Water Bucket</linked></span></span></span></li></ul>"
        },
        "station": {
          "rowspan": 1,
          "value": "<span class=\"i -w\"><linked>[img:Bone Welder]</linked><span><span><linked>Bone Welder</linked></span><span class=\"eico s i1 i2 i3 i4\" title=\"Desktop, Console, Old-gen console and Mobile versions\"><b></b><i></i><span>(Desktop, Console, Old-gen console and Mobile versions)</span></span></span></span>"
        }
      },
      {
        "result": {
          "rowspan": 1,
          "value": "<span class=\"i -w multi-line\">[img:Lesion Sink]<span><span title=\"Lesion Sink\">Lesion Sink</span><span class=\"eico s i1 i2 i4\" title=\"Desktop, Console and Mobile versions\"><b></b><i></i><span>(Desktop, Console and Mobile versions)</span></span><span class=\"id\">Internal <linked>Item ID</linked>: 3972</span></span></span>"
        },
        "ingredients": {
          "value": "<ul><li><span class=\"i\"><linked>[img:Lesion Block]</linked><span><span><linked>Lesion Block</linked></span><span class=\"eico s i1 i2 i4\" title=\"Desktop, Console and Mobile versions\"><b></b><i></i><span>(Desktop, Console and Mobile versions)</span></span></span></span><span class=\"am\">6</span></li><li><span class=\"i\"><linked>[img:Water Bucket]</linked><span><span><linked>Water Bucket</linked></span></span></span></li></ul>"
        },
        "station": {
          "rowspan": 1,
          "value": "<span class=\"i -w\"><linked>[img:Decay Chamber]</linked><span><span><linked>Decay Chamber</linked></span><span class=\"eico s i1 i2 i4\" title=\"Desktop, Console and Mobile versions\"><b></b><i></i><span>(Desktop, Console and Mobile versions)</span></span></span></span>"
        }
      },
      {
        "result": {
          "rowspan": 1,
          "value": "<span class=\"i -w multi-line\">[img:Flesh Sink]<span><span title=\"Flesh Sink\">Flesh Sink</span><span class=\"eico s i1 i2 i4\" title=\"Desktop, Console and Mobile versions\"><b></b><i></i><span>(Desktop, Console and Mobile versions)</span></span><span class=\"id\">Internal <linked>Item ID</linked>: 2832</span></span></span>"
        },
        "ingredients": {
          "value": "<ul><li><span class=\"i\"><linked>[img:Flesh Block]</linked><span><span><linked>Flesh Block</linked></span></span></span><span class=\"am\">6</span></li><li><span class=\"i\"><linked>[img:Water Bucket]</linked><span><span><linked>Water Bucket</linked></span></span></span></li></ul>"
        },
        "station": {
          "rowspan": 1,
          "value": "<span class=\"i -w\"><linked>[img:Flesh Cloning Vat]</linked><span><span><linked>Flesh Cloning Vat</linked></span><span class=\"eico s i1 i2 i3 i4\" title=\"Desktop, Console, Old-gen console and Mobile versions\"><b></b><i></i><span>(Desktop, Console, Old-gen console and Mobile versions)</span></span></span></span>"
        }
      },
      {
        "result": {
          "rowspan": 1,
          "value": "<span class=\"i -w multi-line\">[img:Glass Sink]<span><span title=\"Glass Sink\">Glass Sink</span><span class=\"eico s i1 i2 i4\" title=\"Desktop, Console and Mobile versions\"><b></b><i></i><span>(Desktop, Console and Mobile versions)</span></span><span class=\"id\">Internal <linked>Item ID</linked>: 2842</span></span></span>"
        },
        "ingredients": {
          "value": "<ul><li><span class=\"i\"><linked>[img:Glass]</linked><span><span><linked>Glass</linked></span></span></span><span class=\"am\">6</span></li><li><span class=\"i\"><linked>[img:Water Bucket]</linked><span><span><linked>Water Bucket</linked></span></span></span></li></ul>"
        },
        "station": {
          "rowspan": 1,
          "value": "<span class=\"i -w\"><linked>[img:Glass Kiln]</linked><span><span><linked>Glass Kiln</linked></span><span class=\"eico s i1 i2 i3 i4\" title=\"Desktop, Console, Old-gen console and Mobile versions\"><b></b><i></i><span>(Desktop, Console, Old-gen console and Mobile versions)</span></span></span></span>"
        }
      },
      {
        "result": {
          "rowspan": 1,
          "value": "<span class=\"i -w multi-line\">[img:Honey Sink]<span><span title=\"Honey Sink\">Honey Sink</span><span class=\"eico s i1 i2 i4\" title=\"Desktop, Console and Mobile versions\"><b></b><i></i><span>(Desktop, Console and Mobile versions)</span></span><span class=\"id\">Internal <linked>Item ID</linked>: 2844</span></span></span>"
        },
        "ingredients": {
          "value": "<ul><li><span class=\"i\"><linked>[img:Honey Block]</linked><span><span><linked>Honey Block</linked></span></span></span><span class=\"am\">6</span></li><li><span class=\"i\"><linked>[img:Water Bucket]</linked><span><span><linked>Water Bucket</linked></span></span></span></li></ul>"
        },
        "station": {
          "rowspan": 1,
          "value": "<span class=\"i -w\"><linked>[img:Honey Dispenser]</linked><span><span><linked>Honey Dispenser</linked></span><span class=\"eico s i1 i2 i3 i4\" title=\"Desktop, Console, Old-gen console and Mobile versions\"><b></b><i></i><span>(Desktop, Console, Old-gen console and Mobile versions)</span></span></span></span>"
        }
      },
      {
        "result": {
          "rowspan": 1,
          "value": "<span class=\"i -w multi-line\">[img:Frozen Sink]<span><span title=\"Frozen Sink\">Frozen Sink</span><span class=\"eico s i1 i2 i4\" title=\"Desktop, Console and Mobile versions\"><b></b><i></i><span>(Desktop, Console and Mobile versions)</span></span><span class=\"id\">Internal <linked>Item ID</linked>: 2848</span></span></span>"
        },
        "ingredients": {
          "value": "<ul><li><span class=\"i\"><linked>[img:Ice Block]</linked><span><span><linked>Ice Block</linked></span></span></span><span class=\"am\">6</span></li><li><span class=\"i\"><linked>[img:Water Bucket]</linked><span><span><linked>Water Bucket</linked></span></span></span></li></ul>"
        },
        "station": {
          "rowspan": 1,
          "value": "<span class=\"i -w\"><linked>[img:Ice Machine]</linked><span><span><linked>Ice Machine</linked></span><span class=\"eico s i1 i2 i3 i4\" title=\"Desktop, Console, Old-gen console and Mobile versions\"><b></b><i></i><span>(Desktop, Console, Old-gen console and Mobile versions)</span></span></span></span>"
        }
      },
      {
        "result": {
          "rowspan": 1,
          "value": "<span class=\"i -w multi-line\">[img:Metal Sink]<span><span title=\"Metal Sink\">Metal Sink</span><span class=\"id\">Internal <linked>Item ID</linked>: 2841</span></span></span>"
        },
        "ingredients": {
          "value": "<ul><li><span class=\"i\"><linked>[img:Any Iron Bar]</linked><span><span><linked>Any Iron Bar</linked></span></span></span><span class=\"am\">3</span></li><li><span class=\"i\"><linked>[img:Water Bucket]</linked><span><span><linked>Water Bucket</linked></span></span></span></li></ul>"
        },
        "station": {
          "rowspan": 1,
          "value": "<span class=\"i\"><linked>[img:Iron Anvil]</linked><span><span><linked>Iron Anvil</linked></span></span></span><br><i><b>or</b></i><br><span class=\"i\"><linked>[img:Lead Anvil]</linked><span><span><linked>Lead Anvil</linked></span></span></span>"
        }
      },
      {
        "result": {
          "rowspan": 1,
          "value": "<span class=\"i -w multi-line\">[img:Lihzahrd Sink]<span><span title=\"Lihzahrd Sink\">Lihzahrd Sink</span><span class=\"eico s i1 i2 i4\" title=\"Desktop, Console and Mobile versions\"><b></b><i></i><span>(Desktop, Console and Mobile versions)</span></span><span class=\"id\">Internal <linked>Item ID</linked>: 2836</span></span></span>"
        },
        "ingredients": {
          "value": "<ul><li><span class=\"i\"><linked>[img:Lihzahrd Brick]</linked><span><span><linked>Lihzahrd Brick</linked></span></span></span><span class=\"am\">6</span></li><li><span class=\"i\"><linked>[img:Water Bucket]</linked><span><span><linked>Water Bucket</linked></span></span></span></li></ul>"
        },
        "station": {
          "rowspan": 1,
          "value": "<span class=\"i -w\"><linked>[img:Lihzahrd Furnace]</linked><span><span><linked>Lihzahrd Furnace</linked></span><span class=\"eico s i1 i2 i3 i4\" title=\"Desktop, Console, Old-gen console and Mobile versions\"><b></b><i></i><span>(Desktop, Console, Old-gen console and Mobile versions)</span></span></span></span>"
        }
      },
      {
        "result": {
          "rowspan": 1,
          "value": "<span class=\"i -w multi-line\">[img:Living Wood Sink]<span><span title=\"Living Wood Sink\">Living Wood Sink</span><span class=\"eico s i1 i2 i4\" title=\"Desktop, Console and Mobile versions\"><b></b><i></i><span>(Desktop, Console and Mobile versions)</span></span><span class=\"id\">Internal <linked>Item ID</linked>: 2833</span></span></span>"
        },
        "ingredients": {
          "value": "<ul><li><span class=\"i\"><linked>[img:Wood]</linked><span><span><linked>Wood</linked></span></span></span><span class=\"am\">6</span></li><li><span class=\"i\"><linked>[img:Water Bucket]</linked><span><span><linked>Water Bucket</linked></span></span></span></li></ul>"
        },
        "station": {
          "rowspan": 1,
          "value": "<span class=\"i -w\"><linked>[img:Living Loom]</linked><span><span><linked>Living Loom</linked></span><span class=\"eico s i1 i2 i3 i4\" title=\"Desktop, Console, Old-gen console and Mobile versions\"><b></b><i></i><span>(Desktop, Console, Old-gen console and Mobile versions)</span></span></span></span>"
        }
      },
      {
        "result": {
          "rowspan": 1,
          "value": "<span class=\"i -w multi-line\">[img:Skyware Sink]<span><span title=\"Skyware Sink\">Skyware Sink</span><span class=\"eico s i1 i2 i4\" title=\"Desktop, Console and Mobile versions\"><b></b><i></i><span>(Desktop, Console and Mobile versions)</span></span><span class=\"id\">Internal <linked>Item ID</linked>: 2834</span></span></span>"
        },
        "ingredients": {
          "value": "<ul><li><span class=\"i\"><linked>[img:Sunplate Block]</linked><span><span><linked>Sunplate Block</linked></span></span></span><span class=\"am\">6</span></li><li><span class=\"i\"><linked>[img:Water Bucket]</linked><span><span><linked>Water Bucket</linked></span></span></span></li></ul>"
        },
        "station": {
          "rowspan": 1,
          "value": "<span class=\"i -w\"><linked>[img:Sky Mill]</linked><span><span><linked>Sky Mill</linked></span><span class=\"eico s i1 i2 i3 i4\" title=\"Desktop, Console, Old-gen console and Mobile versions\"><b></b><i></i><span>(Desktop, Console, Old-gen console and Mobile versions)</span></span></span></span>"
        }
      },
      {
        "result": {
          "rowspan": 1,
          "value": "<span class=\"i -w multi-line\">[img:Slime Sink]<span><span title=\"Slime Sink\">Slime Sink</span><span class=\"eico s i1 i2 i4\" title=\"Desktop, Console and Mobile versions\"><b></b><i></i><span>(Desktop, Console and Mobile versions)</span></span><span class=\"id\">Internal <linked>Item ID</linked>: 2853</span></span></span>"
        },
        "ingredients": {
          "value": "<ul><li><span class=\"i\"><linked>[img:Slime Block]</linked><span><span><linked>Slime Block</linked></span></span></span><span class=\"am\">6</span></li><li><span class=\"i\"><linked>[img:Water Bucket]</linked><span><span><linked>Water Bucket</linked></span></span></span></li></ul>"
        },
        "station": {
          "rowspan": 1,
          "value": "<span class=\"i\"><linked>[img:Solidifier]</linked><span><span><linked>Solidifier</linked></span></span></span>"
        }
      },
      {
        "result": {
          "rowspan": 1,
          "value": "<span class=\"i -w multi-line\">[img:Steampunk Sink]<span><span title=\"Steampunk Sink\">Steampunk Sink</span><span class=\"id\">Internal <linked>Item ID</linked>: 2845</span></span></span>"
        },
        "ingredients": {
          "value": "<ul><li><span class=\"i\"><linked>[img:Cog]</linked><span><span><linked>Cog</linked></span></span></span><span class=\"am\">6</span></li><li><span class=\"i\"><linked>[img:Water Bucket]</linked><span><span><linked>Water Bucket</linked></span></span></span></li></ul>"
        },
        "station": {
          "rowspan": 1,
          "value": "<span class=\"i -w\"><linked>[img:Steampunk Boiler]</linked><span><span><linked>Steampunk Boiler</linked></span><span class=\"eico s i1 i2 i3 i4\" title=\"Desktop, Console, Old-gen console and Mobile versions\"><b></b><i></i><span>(Desktop, Console, Old-gen console and Mobile versions)</span></span></span></span>"
        }
      },
      {
        "result": {
          "rowspan": 1,
          "value": "<span class=\"i -w multi-line\">[img:Ash Wood Sink]<span><span title=\"Ash Wood Sink\">Ash Wood Sink</span><span class=\"eico s i1 i2 i4\" title=\"Desktop, Console and Mobile versions\"><b></b><i></i><span>(Desktop, Console and Mobile versions)</span></span><span class=\"id\">Internal <linked>Item ID</linked>: 5205</span></span></span>"
        },
        "ingredients": {
          "value": "<ul><li><span class=\"i\"><linked>[img:Ash Wood]</linked><span><span><linked>Ash Wood</linked></span><span class=\"eico s i1 i2 i4\" title=\"Desktop, Console and Mobile versions\"><b></b><i></i><span>(Desktop, Console and Mobile versions)</span></span></span></span><span class=\"am\">6</span></li><li><span class=\"i\"><linked>[img:Water Bucket]</linked><span><span><linked>Water Bucket</linked></span></span></span></li></ul>"
        },
        "station": {
          "rowspan": 27,
          "value": "<span class=\"i\"><linked>[img:Work Bench]</linked><span><span><linked>Work Bench</linked></span></span></span>"
        }
      },
      {
        "result": {
          "rowspan": 1,
          "value": "<span class=\"i -w multi-line\">[img:Balloon Sink]<span><span title=\"Balloon Sink\">Balloon Sink</span><span class=\"eico s i1 i2 i4\" title=\"Desktop, Console and Mobile versions\"><b></b><i></i><span>(Desktop, Console and Mobile versions)</span></span><span class=\"id\">Internal <linked>Item ID</linked>: 5184</span></span></span>"
        },
        "ingredients": {
          "value": "<ul><li><span class=\"i\"><linked>[img:Any Balloon]</linked><span><span><linked>Any Balloon</linked></span></span></span><span class=\"am\">6</span></li><li><span class=\"i\"><linked>[img:Water Bucket]</linked><span><span><linked>Water Bucket</linked></span></span></span></li></ul>"
        }
      },
      {
        "result": {
          "rowspan": 1,
          "value": "<span class=\"i -w multi-line\">[img:Bamboo Sink]<span><span title=\"Bamboo Sink\">Bamboo Sink</span><span class=\"eico s i1 i2 i4\" title=\"Desktop, Console and Mobile versions\"><b></b><i></i><span>(Desktop, Console and Mobile versions)</span></span><span class=\"id\">Internal <linked>Item ID</linked>: 4581</span></span></span>"
        },
        "ingredients": {
          "value": "<ul><li><span class=\"i\"><linked>[img:Bamboo]</linked><span><span><linked>Bamboo</linked></span><span class=\"eico s i1 i2 i4\" title=\"Desktop, Console and Mobile versions\"><b></b><i></i><span>(Desktop, Console and Mobile versions)</span></span></span></span><span class=\"am\">6</span></li><li><span class=\"i\"><linked>[img:Water Bucket]</linked><span><span><linked>Water Bucket</linked></span></span></span></li></ul>"
        }
      },
      {
        "result": {
          "rowspan": 1,
          "value": "<span class=\"i -w multi-line\">[img:Blue Dungeon Sink]<span><span title=\"Blue Dungeon Sink\">Blue Dungeon Sink</span><span class=\"eico s i1 i2 i4\" title=\"Desktop, Console and Mobile versions\"><b></b><i></i><span>(Desktop, Console and Mobile versions)</span></span><span class=\"id\">Internal <linked>Item ID</linked>: 2837</span></span></span>"
        },
        "ingredients": {
          "value": "<ul><li><span class=\"i\"><linked>[img:Blue Brick]</linked><span><span><linked>Blue Brick</linked></span></span></span><span class=\"am\">6</span></li><li><span class=\"i\"><linked>[img:Water Bucket]</linked><span><span><linked>Water Bucket</linked></span></span></span></li></ul>"
        }
      },
      {
        "result": {
          "rowspan": 1,
          "value": "<span class=\"i -w multi-line\">[img:Boreal Wood Sink]<span><span title=\"Boreal Wood Sink\">Boreal Wood Sink</span><span class=\"eico s i1 i2 i4\" title=\"Desktop, Console and Mobile versions\"><b></b><i></i><span>(Desktop, Console and Mobile versions)</span></span><span class=\"id\">Internal <linked>Item ID</linked>: 2852</span></span></span>"
        },
        "ingredients": {
          "value": "<ul><li><span class=\"i\"><linked>[img:Boreal Wood]</linked><span><span><linked>Boreal Wood</linked></span><span class=\"eico s i1 i2 i3 i4\" title=\"Desktop, Console, Old-gen console and Mobile versions\"><b></b><i></i><span>(Desktop, Console, Old-gen console and Mobile versions)</span></span></span></span><span class=\"am\">6</span></li><li><span class=\"i\"><linked>[img:Water Bucket]</linked><span><span><linked>Water Bucket</linked></span></span></span></li></ul>"
        }
      },
      {
        "result": {
          "rowspan": 1,
          "value": "<span class=\"i -w multi-line\">[img:Cactus Sink]<span><span title=\"Cactus Sink\">Cactus Sink</span><span class=\"eico s i1 i2 i4\" title=\"Desktop, Console and Mobile versions\"><b></b><i></i><span>(Desktop, Console and Mobile versions)</span></span><span class=\"id\">Internal <linked>Item ID</linked>: 2854</span></span></span>"
        },
        "ingredients": {
          "value": "<ul><li><span class=\"i\"><linked>[img:Cactus]</linked><span><span><linked>Cactus</linked></span></span></span><span class=\"am\">6</span></li><li><span class=\"i\"><linked>[img:Water Bucket]</linked><span><span><linked>Water Bucket</linked></span></span></span></li></ul>"
        }
      },
      {
        "result": {
          "rowspan": 1,
          "value": "<span class=\"i -w multi-line\">[img:Crystal Sink]<span><span title=\"Crystal Sink\">Crystal Sink</span><span class=\"eico s i1 i2 i4\" title=\"Desktop, Console and Mobile versions\"><b></b><i></i><span>(Desktop, Console and Mobile versions)</span></span><span class=\"id\">Internal <linked>Item ID</linked>: 3896</span></span></span>"
        },
        "ingredients": {
          "value": "<ul><li><span class=\"i\"><linked>[img:Crystal Block]</linked><span><span><linked>Crystal Block</linked></span><span class=\"eico s i1 i2 i4\" title=\"Desktop, Console and Mobile versions\"><b></b><i></i><span>(Desktop, Console and Mobile versions)</span></span></span></span><span class=\"am\">15</span></li><li><span class=\"i\"><linked>[img:Water Bucket]</linked><span><span><linked>Water Bucket</linked></span></span></span></li></ul>"
        }
      },
      {
        "result": {
          "rowspan": 1,
          "value": "<span class=\"i -w multi-line\">[img:Dynasty Sink]<span><span title=\"Dynasty Sink\">Dynasty Sink</span><span class=\"eico s i1 i2 i4\" title=\"Desktop, Console and Mobile versions\"><b></b><i></i><span>(Desktop, Console and Mobile versions)</span></span><span class=\"id\">Internal <linked>Item ID</linked>: 2849</span></span></span>"
        },
        "ingredients": {
          "value": "<ul><li><span class=\"i\"><linked>[img:Dynasty Wood]</linked><span><span><linked>Dynasty Wood</linked></span><span class=\"eico s i1 i2 i3 i4\" title=\"Desktop, Console, Old-gen console and Mobile versions\"><b></b><i></i><span>(Desktop, Console, Old-gen console and Mobile versions)</span></span></span></span><span class=\"am\">6</span></li><li><span class=\"i\"><linked>[img:Water Bucket]</linked><span><span><linked>Water Bucket</linked></span></span></span></li></ul>"
        }
      },
      {
        "result": {
          "rowspan": 1,
          "value": "<span class=\"i -w multi-line\">[img:Ebonwood Sink]<span><span title=\"Ebonwood Sink\">Ebonwood Sink</span><span class=\"eico s i1 i2 i4\" title=\"Desktop, Console and Mobile versions\"><b></b><i></i><span>(Desktop, Console and Mobile versions)</span></span><span class=\"id\">Internal <linked>Item ID</linked>: 2828</span></span></span>"
        },
        "ingredients": {
          "value": "<ul><li><span class=\"i\"><linked>[img:Ebonwood]</linked><span><span><linked>Ebonwood</linked></span></span></span><span class=\"am\">6</span></li><li><span class=\"i\"><linked>[img:Water Bucket]</linked><span><span><linked>Water Bucket</linked></span></span></span></li></ul>"
        }
      },
      {
        "result": {
          "rowspan": 1,
          "value": "<span class=\"i -w multi-line\">[img:Granite Sink]<span><span title=\"Granite Sink\">Granite Sink</span><span class=\"eico s i1 i2 i4\" title=\"Desktop, Console and Mobile versions\"><b></b><i></i><span>(Desktop, Console and Mobile versions)</span></span><span class=\"id\">Internal <linked>Item ID</linked>: 3149</span></span></span>"
        },
        "ingredients": {
          "value": "<ul><li><span class=\"i\"><linked>[img:Smooth Granite Block]</linked><span><span><linked>Smooth Granite Block</linked></span><span class=\"eico s i1 i2 i4\" title=\"Desktop, Console and Mobile versions\"><b></b><i></i><span>(Desktop, Console and Mobile versions)</span></span></span></span><span class=\"am\">6</span></li><li><span class=\"i\"><linked>[img:Water Bucket]</linked><span><span><linked>Water Bucket</linked></span></span></span></li></ul>"
        }
      },
      {
        "result": {
          "rowspan": 1,
          "value": "<span class=\"i -w multi-line\">[img:Green Dungeon Sink]<span><span title=\"Green Dungeon Sink\">Green Dungeon Sink</span><span class=\"eico s i1 i2 i4\" title=\"Desktop, Console and Mobile versions\"><b></b><i></i><span>(Desktop, Console and Mobile versions)</span></span><span class=\"id\">Internal <linked>Item ID</linked>: 2838</span></span></span>"
        },
        "ingredients": {
          "value": "<ul><li><span class=\"i\"><linked>[img:Green Brick]</linked><span><span><linked>Green Brick</linked></span></span></span><span class=\"am\">6</span></li><li><span class=\"i\"><linked>[img:Water Bucket]</linked><span><span><linked>Water Bucket</linked></span></span></span></li></ul>"
        }
      },
      {
        "result": {
          "rowspan": 1,
          "value": "<span class=\"i -w multi-line\">[img:Marble Sink]<span><span title=\"Marble Sink\">Marble Sink</span><span class=\"eico s i1 i2 i4\" title=\"Desktop, Console and Mobile versions\"><b></b><i></i><span>(Desktop, Console and Mobile versions)</span></span><span class=\"id\">Internal <linked>Item ID</linked>: 3148</span></span></span>"
        },
        "ingredients": {
          "value": "<ul><li><span class=\"i\"><linked>[img:Smooth Marble Block]</linked><span><span><linked>Smooth Marble Block</linked></span><span class=\"eico s i1 i2 i4\" title=\"Desktop, Console and Mobile versions\"><b></b><i></i><span>(Desktop, Console and Mobile versions)</span></span></span></span><span class=\"am\">6</span></li><li><span class=\"i\"><linked>[img:Water Bucket]</linked><span><span><linked>Water Bucket</linked></span></span></span></li></ul>"
        }
      },
      {
        "result": {
          "rowspan": 1,
          "value": "<span class=\"i -w multi-line\">[img:Martian Sink]<span><span title=\"Martian Sink\">Martian Sink</span><span class=\"eico s i1 i2 i4\" title=\"Desktop, Console and Mobile versions\"><b></b><i></i><span>(Desktop, Console and Mobile versions)</span></span><span class=\"id\">Internal <linked>Item ID</linked>: 2855</span></span></span>"
        },
        "ingredients": {
          "value": "<ul><li><span class=\"i\"><linked>[img:Martian Conduit Plating]</linked><span><span><linked>Martian Conduit Plating</linked></span><span class=\"eico s i1 i2 i4\" title=\"Desktop, Console and Mobile versions\"><b></b><i></i><span>(Desktop, Console and Mobile versions)</span></span></span></span><span class=\"am\">6</span></li><li><span class=\"i\"><linked>[img:Water Bucket]</linked><span><span><linked>Water Bucket</linked></span></span></span></li></ul>"
        }
      },
      {
        "result": {
          "rowspan": 1,
          "value": "<span class=\"i -w multi-line\">[img:Meteorite Sink]<span><span title=\"Meteorite Sink\">Meteorite Sink</span><span class=\"id\">Internal <linked>Item ID</linked>: 3147</span></span></span>"
        },
        "ingredients": {
          "value": "<ul><li><span class=\"i\"><linked>[img:Meteorite Brick]</linked><span><span><linked>Meteorite Brick</linked></span><span class=\"eico s i1 i2 i4\" title=\"Desktop, Console and Mobile versions\"><b></b><i></i><span>(Desktop, Console and Mobile versions)</span></span></span></span><span class=\"am\">6</span></li><li><span class=\"i\"><linked>[img:Water Bucket]</linked><span><span><linked>Water Bucket</linked></span></span></span></li></ul>"
        }
      },
      {
        "result": {
          "rowspan": 1,
          "value": "<span class=\"i -w multi-line\">[img:Mushroom Sink]<span><span title=\"Mushroom Sink\">Mushroom Sink</span><span class=\"eico s i1 i2 i4\" title=\"Desktop, Console and Mobile versions\"><b></b><i></i><span>(Desktop, Console and Mobile versions)</span></span><span class=\"id\">Internal <linked>Item ID</linked>: 2851</span></span></span>"
        },
        "ingredients": {
          "value": "<ul><li><span class=\"i\"><linked>[img:Glowing Mushroom]</linked><span><span><linked>Glowing Mushroom</linked></span></span></span><span class=\"am\">6</span></li><li><span class=\"i\"><linked>[img:Water Bucket]</linked><span><span><linked>Water Bucket</linked></span></span></span></li></ul>"
        }
      },
      {
        "result": {
          "rowspan": 1,
          "value": "<span class=\"i -w multi-line\">[img:Obsidian Sink]<span><span title=\"Obsidian Sink\">Obsidian Sink</span><span class=\"eico s i1 i2 i4\" title=\"Desktop, Console and Mobile versions\"><b></b><i></i><span>(Desktop, Console and Mobile versions)</span></span><span class=\"id\">Internal <linked>Item ID</linked>: 2840</span></span></span>"
        },
        "ingredients": {
          "value": "<ul><li><span class=\"i\"><linked>[img:Obsidian]</linked><span><span><linked>Obsidian</linked></span></span></span><span class=\"am\">4</span></li><li><span class=\"i\"><linked>[img:Hellstone]</linked><span><span><linked>Hellstone</linked></span></span></span><span class=\"am\">2</span></li><li><span class=\"i\"><linked>[img:Water Bucket]</linked><span><span><linked>Water Bucket</linked></span></span></span></li></ul>"
        }
      },
      {
        "result": {
          "rowspan": 1,
          "value": "<span class=\"i -w multi-line\">[img:Palm Wood Sink]<span><span title=\"Palm Wood Sink\">Palm Wood Sink</span><span class=\"eico s i1 i2 i4\" title=\"Desktop, Console and Mobile versions\"><b></b><i></i><span>(Desktop, Console and Mobile versions)</span></span><span class=\"id\">Internal <linked>Item ID</linked>: 2850</span></span></span>"
        },
        "ingredients": {
          "value": "<ul><li><span class=\"i\"><linked>[img:Palm Wood]</linked><span><span><linked>Palm Wood</linked></span><span class=\"eico s i1 i2 i3 i4\" title=\"Desktop, Console, Old-gen console and Mobile versions\"><b></b><i></i><span>(Desktop, Console, Old-gen console and Mobile versions)</span></span></span></span><span class=\"am\">6</span></li><li><span class=\"i\"><linked>[img:Water Bucket]</linked><span><span><linked>Water Bucket</linked></span></span></span></li></ul>"
        }
      },
      {
        "result": {
          "rowspan": 1,
          "value": "<span class=\"i -w multi-line\">[img:Pearlwood Sink]<span><span title=\"Pearlwood Sink\">Pearlwood Sink</span><span class=\"eico s i1 i2 i4\" title=\"Desktop, Console and Mobile versions\"><b></b><i></i><span>(Desktop, Console and Mobile versions)</span></span><span class=\"id\">Internal <linked>Item ID</linked>: 2830</span></span></span>"
        },
        "ingredients": {
          "value": "<ul><li><span class=\"i\"><linked>[img:Pearlwood]</linked><span><span><linked>Pearlwood</linked></span></span></span><span class=\"am\">6</span></li><li><span class=\"i\"><linked>[img:Water Bucket]</linked><span><span><linked>Water Bucket</linked></span></span></span></li></ul>"
        }
      },
      {
        "result": {
          "rowspan": 1,
          "value": "<span class=\"i -w multi-line\">[img:Pink Dungeon Sink]<span><span title=\"Pink Dungeon Sink\">Pink Dungeon Sink</span><span class=\"eico s i1 i2 i4\" title=\"Desktop, Console and Mobile versions\"><b></b><i></i><span>(Desktop, Console and Mobile versions)</span></span><span class=\"id\">Internal <linked>Item ID</linked>: 2839</span></span></span>"
        },
        "ingredients": {
          "value": "<ul><li><span class=\"i\"><linked>[img:Pink Brick]</linked><span><span><linked>Pink Brick</linked></span></span></span><span class=\"am\">6</span></li><li><span class=\"i\"><linked>[img:Water Bucket]</linked><span><span><linked>Water Bucket</linked></span></span></span></li></ul>"
        }
      },
      {
        "result": {
          "rowspan": 1,
          "value": "<span class=\"i -w multi-line\">[img:Pumpkin Sink]<span><span title=\"Pumpkin Sink\">Pumpkin Sink</span><span class=\"id\">Internal <linked>Item ID</linked>: 2846</span></span></span>"
        },
        "ingredients": {
          "value": "<ul><li><span class=\"i\"><linked>[img:Pumpkin]</linked><span><span><linked>Pumpkin</linked></span></span></span><span class=\"am\">6</span></li><li><span class=\"i\"><linked>[img:Water Bucket]</linked><span><span><linked>Water Bucket</linked></span></span></span></li></ul>"
        }
      },
      {
        "result": {
          "rowspan": 1,
          "value": "<span class=\"i -w multi-line\">[img:Reef Sink]<span><span title=\"Reef Sink\">Reef Sink</span><span class=\"eico s i1 i2 i4\" title=\"Desktop, Console and Mobile versions\"><b></b><i></i><span>(Desktop, Console and Mobile versions)</span></span><span class=\"id\">Internal <linked>Item ID</linked>: 5163</span></span></span>"
        },
        "ingredients": {
          "value": "<ul><li><span class=\"i\"><linked>[img:Reef Block]</linked><span><span><linked>Reef Block</linked></span><span class=\"eico s i1 i2 i4\" title=\"Desktop, Console and Mobile versions\"><b></b><i></i><span>(Desktop, Console and Mobile versions)</span></span></span></span><span class=\"am\">6</span></li><li><span class=\"i\"><linked>[img:Water Bucket]</linked><span><span><linked>Water Bucket</linked></span></span></span></li></ul>"
        }
      },
      {
        "result": {
          "rowspan": 1,
          "value": "<span class=\"i -w multi-line\">[img:Rich Mahogany Sink]<span><span title=\"Rich Mahogany Sink\">Rich Mahogany Sink</span><span class=\"eico s i1 i2 i4\" title=\"Desktop, Console and Mobile versions\"><b></b><i></i><span>(Desktop, Console and Mobile versions)</span></span><span class=\"id\">Internal <linked>Item ID</linked>: 2829</span></span></span>"
        },
        "ingredients": {
          "value": "<ul><li><span class=\"i\"><linked>[img:Rich Mahogany]</linked><span><span><linked>Rich Mahogany</linked></span></span></span><span class=\"am\">6</span></li><li><span class=\"i\"><linked>[img:Water Bucket]</linked><span><span><linked>Water Bucket</linked></span></span></span></li></ul>"
        }
      },
      {
        "result": {
          "rowspan": 1,
          "value": "<span class=\"i -w multi-line\">[img:Sandstone Sink]<span><span title=\"Sandstone Sink\">Sandstone Sink</span><span class=\"eico s i1 i2 i4\" title=\"Desktop, Console and Mobile versions\"><b></b><i></i><span>(Desktop, Console and Mobile versions)</span></span><span class=\"id\">Internal <linked>Item ID</linked>: 4312</span></span></span>"
        },
        "ingredients": {
          "value": "<ul><li><span class=\"i\"><linked>[img:Smooth Sandstone]</linked><span><span><linked>Smooth Sandstone</linked></span><span class=\"eico s i1 i2 i4\" title=\"Desktop, Console and Mobile versions\"><b></b><i></i><span>(Desktop, Console and Mobile versions)</span></span></span></span><span class=\"am\">6</span></li><li><span class=\"i\"><linked>[img:Water Bucket]</linked><span><span><linked>Water Bucket</linked></span></span></span></li></ul>"
        }
      },
      {
        "result": {
          "rowspan": 1,
          "value": "<span class=\"i -w multi-line\">[img:Shadewood Sink]<span><span title=\"Shadewood Sink\">Shadewood Sink</span><span class=\"eico s i1 i2 i4\" title=\"Desktop, Console and Mobile versions\"><b></b><i></i><span>(Desktop, Console and Mobile versions)</span></span><span class=\"id\">Internal <linked>Item ID</linked>: 2835</span></span></span>"
        },
        "ingredients": {
          "value": "<ul><li><span class=\"i\"><linked>[img:Shadewood]</linked><span><span><linked>Shadewood</linked></span></span></span><span class=\"am\">6</span></li><li><span class=\"i\"><linked>[img:Water Bucket]</linked><span><span><linked>Water Bucket</linked></span></span></span></li></ul>"
        }
      },
      {
        "result": {
          "rowspan": 1,
          "value": "<span class=\"i -w multi-line\">[img:Spider Sink]<span><span title=\"Spider Sink\">Spider Sink</span><span class=\"eico s i1 i2 i4\" title=\"Desktop, Console and Mobile versions\"><b></b><i></i><span>(Desktop, Console and Mobile versions)</span></span><span class=\"id\">Internal <linked>Item ID</linked>: 3946</span></span></span>"
        },
        "ingredients": {
          "value": "<ul><li><span class=\"i\"><linked>[img:Spider Nest Block]</linked><span><span><linked>Spider Nest Block</linked></span><span class=\"eico s i1 i2 i4\" title=\"Desktop, Console and Mobile versions\"><b></b><i></i><span>(Desktop, Console and Mobile versions)</span></span></span></span><span class=\"am\">6</span></li><li><span class=\"i\"><linked>[img:Water Bucket]</linked><span><span><linked>Water Bucket</linked></span></span></span></li></ul>"
        }
      },
      {
        "result": {
          "rowspan": 1,
          "value": "<span class=\"i -w multi-line\">[img:Spooky Sink]<span><span title=\"Spooky Sink\">Spooky Sink</span><span class=\"eico s i1 i2 i4\" title=\"Desktop, Console and Mobile versions\"><b></b><i></i><span>(Desktop, Console and Mobile versions)</span></span><span class=\"id\">Internal <linked>Item ID</linked>: 2847</span></span></span>"
        },
        "ingredients": {
          "value": "<ul><li><span class=\"i\"><linked>[img:Spooky Wood]</linked><span><span><linked>Spooky Wood</linked></span></span></span><span class=\"am\">6</span></li><li><span class=\"i\"><linked>[img:Water Bucket]</linked><span><span><linked>Water Bucket</linked></span></span></span></li></ul>"
        }
      },
      {
        "result": {
          "rowspan": 1,
          "value": "<span class=\"i -w multi-line\">[img:Wooden Sink]<span><span title=\"Wooden Sink\">Wooden Sink</span><span class=\"eico s i1 i2 i4\" title=\"Desktop, Console and Mobile versions\"><b></b><i></i><span>(Desktop, Console and Mobile versions)</span></span><span class=\"id\">Internal <linked>Item ID</linked>: 2827</span></span></span>"
        },
        "ingredients": {
          "value": "<ul><li><span class=\"i\"><linked>[img:Wood]</linked><span><span><linked>Wood</linked></span></span></span><span class=\"am\">6</span></li><li><span class=\"i\"><linked>[img:Water Bucket]</linked><span><span><linked>Water Bucket</linked></span></span></span></li></ul>"
        }
      }
    ],
    "<span class=\"mw-headline\" id=\"Used_to_craft\">Used to craft</span>": [
      {
        "result": {
          "rowspan": 1,
          "value": "<span class=\"i multi-line\"><linked>[img:Bottled Water]</linked><span><span><linked>Bottled Water</linked></span></span></span>"
        },
        "ingredients": {
          "value": "<ul><li><span class=\"i\"><linked>[img:Bottle]</linked><span><span><linked>Bottle</linked></span></span></span></li></ul>"
        }
      },
      {
        "result": {
          "rowspan": 1,
          "value": "<div class=\"version-note note-text small\"><linked>[img:Desktop version]</linked> <linked>[img:Console version]</linked> <linked>[img:Mobile version]</linked> only:</div><span class=\"i multi-line\"><linked>[img:Coralstone Block]</linked><span><span><linked>Coralstone Block</linked></span></span></span><span class=\"am\">5</span>"
        },
        "ingredients": {
          "value": "<ul><li><span class=\"i\"><linked>[img:Stone Block]</linked><span><span><linked>Stone Block</linked></span></span></span><span class=\"am\">5</span></li><li><span class=\"i\"><linked>[img:Coral]</linked><span><span><linked>Coral</linked></span></span></span></li></ul>"
        }
      },
      {
        "result": {
          "rowspan": 1,
          "value": "<span class=\"i multi-line\"><linked>[img:Mud Block]</linked><span><span><linked>Mud Block</linked></span></span></span>"
        },
        "ingredients": {
          "value": "<ul><li><span class=\"i\"><linked>[img:Dirt Block]</linked><span><span><linked>Dirt Block</linked></span></span></span></li></ul>"
        }
      },
      {
        "result": {
          "rowspan": 1,
          "value": "<span class=\"i multi-line\"><linked>[img:Reef Block]</linked><span><span><linked>Reef Block</linked></span><span class=\"eico s i1 i2 i4\" title=\"Desktop, Console and Mobile versions\"><b></b><i></i><span>(Desktop, Console and Mobile versions)</span></span></span></span><span class=\"am\">10</span>"
        },
        "ingredients": {
          "value": "<ul><li><span class=\"i\"><linked>[img:Stone Block]</linked><span><span><linked>Stone Block</linked></span></span></span><span class=\"am\">10</span></li><li><span class=\"i\"><linked>[img:Coral]</linked><span><span><linked>Coral</linked></span></span></span></li><li><span class=\"i\"><linked>[img:Seashell]</linked><span><span><linked>Seashell</linked></span><span class=\"eico s i1 i2 i3 i4\" title=\"Desktop, Console, Old-gen console and Mobile versions\"><b></b><i></i><span>(Desktop, Console, Old-gen console and Mobile versions)</span></span></span></span></li></ul>"
        }
      },
      {
        "result": {
          "rowspan": 1,
          "value": "<span class=\"i multi-line\"><linked>[img:Wet Bomb]</linked><span><span><linked>Wet Bomb</linked></span><span class=\"eico s i1 i2 i4\" title=\"Desktop, Console and Mobile versions\"><b></b><i></i><span>(Desktop, Console and Mobile versions)</span></span></span></span>"
        },
        "ingredients": {
          "value": "<ul><li><span class=\"i\"><linked>[img:Dry Bomb]</linked><span><span><linked>Dry Bomb</linked></span><span class=\"eico s i1 i2 i4\" title=\"Desktop, Console and Mobile versions\"><b></b><i></i><span>(Desktop, Console and Mobile versions)</span></span></span></span></li></ul>"
        }
      },
      {
        "result": {
          "rowspan": 1,
          "value": "<span class=\"i multi-line\"><linked>[img:Wet Rocket]</linked><span><span><linked>Wet Rocket</linked></span><span class=\"eico s i1 i2 i4\" title=\"Desktop, Console and Mobile versions\"><b></b><i></i><span>(Desktop, Console and Mobile versions)</span></span></span></span>"
        },
        "ingredients": {
          "value": "<ul><li><span class=\"i\"><linked>[img:Dry Rocket]</linked><span><span><linked>Dry Rocket</linked></span><span class=\"eico s i1 i2 i4\" title=\"Desktop, Console and Mobile versions\"><b></b><i></i><span>(Desktop, Console and Mobile versions)</span></span></span></span></li></ul>"
        }
      }
    ],
    "<span class=\"i\"><linked>[img:Water]</linked><span><span><linked>Water</linked></span></span></span><i><b>or</b></i><span class=\"i\"><linked>[img:Sink]</linked><span><span><linked>Sink</linked></span><span class=\"eico i1 i2 i4\" title=\"Desktop, Console and Mobile versions\"><b></b><i></i><span>(Desktop, Console and Mobile versions)</span></span></span></span>": [
      {
        "result": {
          "rowspan": 1,
          "value": "<span class=\"i multi-line\"><linked>[img:Magic Water Dropper]</linked><span><span><linked>Magic Water Dropper</linked></span><span class=\"eico s i1 i2 i4\" title=\"Desktop, Console and Mobile versions\"><b></b><i></i><span>(Desktop, Console and Mobile versions)</span></span></span></span>"
        },
        "ingredients": {
          "value": "<ul><li><span class=\"i\"><linked>[img:Empty Dropper]</linked><span><span><linked>Empty Dropper</linked></span><span class=\"eico s i1 i2 i4\" title=\"Desktop, Console and Mobile versions\"><b></b><i></i><span>(Desktop, Console and Mobile versions)</span></span></span></span></li></ul>"
        }
      },
      {
        "result": {
          "rowspan": 2,
          "value": "<div class=\"version-note note-text small\"><linked>[img:Desktop version]</linked> <linked>[img:Console version]</linked> <linked>[img:Mobile version]</linked> only:</div><span class=\"i multi-line\"><linked>[img:Water Candle]</linked><span><span><linked>Water Candle</linked></span></span></span>"
        },
        "ingredients": {
          "value": "<ul><li><span class=\"i\"><linked>[img:Candle]</linked><span><span><linked>Candle</linked></span></span></span></li></ul>"
        }
      },
      {
        "ingredients": {
          "value": "<ul><li><span class=\"i\"><linked>[img:Platinum Candle]</linked><span><span><linked>Platinum Candle</linked></span></span></span></li></ul>"
        }
      },
      {
        "result": {
          "rowspan": 1,
          "value": "<span class=\"i multi-line\"><linked>[img:Waterfall Block]</linked><span><span><linked>Waterfall Block</linked></span><span class=\"eico s i1 i2 i3 i4\" title=\"Desktop, Console, Old-gen console and Mobile versions\"><b></b><i></i><span>(Desktop, Console, Old-gen console and Mobile versions)</span></span></span></span>"
        },
        "ingredients": {
          "value": "<ul><li><span class=\"i\"><linked>[img:Glass]</linked><span><span><linked>Glass</linked></span></span></span></li></ul>"
        }
      }
    ],
    "<span class=\"i\"><linked>[img:Crystal Ball]</linked><span><span><linked>Crystal Ball</linked></span></span></span> <b>and</b> <span class=\"i\"><linked>[img:Water]</linked><span><span><linked>Water</linked></span></span></span><i><b>or</b></i><span class=\"i\"><linked>[img:Sink]</linked><span><span><linked>Sink</linked></span><span class=\"eico i1 i2 i4\" title=\"Desktop, Console and Mobile versions\"><b></b><i></i><span>(Desktop, Console and Mobile versions)</span></span></span></span>": [
      {
        "result": {
          "rowspan": 1,
          "value": "<div class=\"version-note note-text small\"><linked>[img:Desktop version]</linked> <linked>[img:Console version]</linked> <linked>[img:Mobile version]</linked> only:</div><span class=\"i multi-line\"><linked>[img:Rain Cloud]</linked><span><span><linked>Rain Cloud</linked></span></span></span>"
        },
        "ingredients": {
          "value": "<ul><li><span class=\"i\"><linked>[img:Cloud]</linked><span><span><linked>Cloud</linked></span></span></span></li></ul>"
        }
      }
    ]
  }
}