{
  "type": "crafting_stations",
  "title": "Solidifier",
  "summaries": [
    "The <b>Solidifier</b> is a <linked>crafting station</linked> used to craft <linked>Slime furniture</linked> out of <linked>Slime Blocks</linked>, from which the Solidifier can also be used to craft. It can also be used to craft <linked>Frozen Slime Blocks</linked>, which are special friction-less blocks, and <linked>Pink Slime Blocks</linked>, which negate <linked>fall damage</linked> and cause players to bounce. The Solidifier is always dropped by <linked>King Slime</linked> on the <linked>[img:Desktop version]</linked><linked> Desktop version</linked>, <linked>[img:Console version]</linked><linked> Console version</linked>, and <linked>[img:Mobile version]</linked><linked> Mobile version</linked>. On the <linked>[img:Old-gen console version]</linked><linked> Old-gen console version</linked> and <linked>Nintendo 3DS</linked><linked>[img:Nintendo 3DS version]</linked><linked> version</linked>, it can only be purchased from the <linked>Steampunker</linked> for <span class=\"coin\" title=\"10 Gold Coins\" data-sort-value=\"100000\"><span class=\"gc\">10<i> GC</i></span></span>, during the day."
  ],
  "crafts": {
    "<span class=\"mw-headline\" id=\"Used_to_craft\">Used to craft</span>": [
      {
        "result": {
          "rowspan": 1,
          "value": "<span class=\"i multi-line\"><linked>[img:Frozen Slime Block]</linked><span><span><linked>Frozen Slime Block</linked></span></span></span>"
        },
        "ingredients": {
          "value": "<ul><li><span class=\"i\"><linked>[img:Slime Block]</linked><span><span><linked>Slime Block</linked></span></span></span></li><li><span class=\"i\"><linked>[img:Ice Block]</linked><span><span><linked>Ice Block</linked></span></span></span></li></ul>"
        }
      },
      {
        "result": {
          "rowspan": 1,
          "value": "<div class=\"version-note note-text small\"><linked>[img:Desktop version]</linked> <linked>[img:Console version]</linked> <linked>[img:Mobile version]</linked> only:</div><span class=\"i multi-line\"><linked>[img:Hardened Sand Block]</linked><span><span><linked>Hardened Sand Block</linked></span></span></span>"
        },
        "ingredients": {
          "value": "<ul><li><span class=\"i\"><linked>[img:Sand Block]</linked><span><span><linked>Sand Block</linked></span></span></span></li><li><span class=\"i\"><linked>[img:Dirt Block]</linked><span><span><linked>Dirt Block</linked></span></span></span></li></ul>"
        }
      },
      {
        "result": {
          "rowspan": 1,
          "value": "<span class=\"i multi-line\"><linked>[img:Pink Slime Block]</linked><span><span><linked>Pink Slime Block</linked></span><span class=\"eico s i1 i2 i4\" title=\"Desktop, Console and Mobile versions\"><b></b><i></i><span>(Desktop, Console and Mobile versions)</span></span></span></span>"
        },
        "ingredients": {
          "value": "<ul><li><span class=\"i\"><linked>[img:Pink Gel]</linked><span><span><linked>Pink Gel</linked></span><span class=\"eico s i1 i2 i4\" title=\"Desktop, Console and Mobile versions\"><b></b><i></i><span>(Desktop, Console and Mobile versions)</span></span></span></span></li></ul>"
        }
      },
      {
        "result": {
          "rowspan": 1,
          "value": "<div class=\"version-note note-text small\"><linked>[img:Desktop version]</linked> <linked>[img:Console version]</linked> <linked>[img:Mobile version]</linked> only:</div><span class=\"i multi-line\"><linked>[img:Sandstone Block]</linked><span><span><linked>Sandstone Block</linked></span></span></span>"
        },
        "ingredients": {
          "value": "<ul><li><span class=\"i\"><linked>[img:Sand Block]</linked><span><span><linked>Sand Block</linked></span></span></span></li><li><span class=\"i\"><linked>[img:Stone Block]</linked><span><span><linked>Stone Block</linked></span></span></span></li></ul>"
        }
      },
      {
        "result": {
          "rowspan": 1,
          "value": "<span class=\"i multi-line\"><linked>[img:Slime Bathtub]</linked><span><span><linked>Slime Bathtub</linked></span></span></span>"
        },
        "ingredients": {
          "value": "<ul><li><span class=\"i\"><linked>[img:Slime Block]</linked><span><span><linked>Slime Block</linked></span></span></span><span class=\"am\">14</span></li></ul>"
        }
      },
      {
        "result": {
          "rowspan": 1,
          "value": "<span class=\"i multi-line\"><linked>[img:Slime Bed]</linked><span><span><linked>Slime Bed</linked></span></span></span>"
        },
        "ingredients": {
          "value": "<ul><li><span class=\"i\"><linked>[img:Slime Block]</linked><span><span><linked>Slime Block</linked></span></span></span><span class=\"am\">15</span></li><li><span class=\"i\"><linked>[img:Silk]</linked><span><span><linked>Silk</linked></span></span></span><span class=\"am\">5</span></li></ul>"
        }
      },
      {
        "result": {
          "rowspan": 1,
          "value": "<span class=\"i multi-line\"><linked>[img:Slime Block]</linked><span><span><linked>Slime Block</linked></span></span></span>"
        },
        "ingredients": {
          "value": "<ul><li><span class=\"i\"><linked>[img:Gel]</linked><span><span><linked>Gel</linked></span></span></span></li></ul>"
        }
      },
      {
        "result": {
          "rowspan": 1,
          "value": "<span class=\"i multi-line\"><linked>[img:Slime Bookcase]</linked><span><span><linked>Slime Bookcase</linked></span></span></span>"
        },
        "ingredients": {
          "value": "<ul><li><span class=\"i\"><linked>[img:Slime Block]</linked><span><span><linked>Slime Block</linked></span></span></span><span class=\"am\">20</span></li><li><span class=\"i\"><linked>[img:Book]</linked><span><span><linked>Book</linked></span></span></span><span class=\"am\">10</span></li></ul>"
        }
      },
      {
        "result": {
          "rowspan": 1,
          "value": "<span class=\"i multi-line\"><linked>[img:Slime Candelabra]</linked><span><span><linked>Slime Candelabra</linked></span></span></span>"
        },
        "ingredients": {
          "value": "<ul><li><span class=\"i\"><linked>[img:Slime Block]</linked><span><span><linked>Slime Block</linked></span></span></span><span class=\"am\">5</span></li><li><span class=\"i\"><linked>[img:Torch]</linked><span><span><linked>Torch</linked></span></span></span><span class=\"am\">3</span></li></ul>"
        }
      },
      {
        "result": {
          "rowspan": 1,
          "value": "<span class=\"i multi-line\"><linked>[img:Slime Candle]</linked><span><span><linked>Slime Candle</linked></span></span></span>"
        },
        "ingredients": {
          "value": "<ul><li><span class=\"i\"><linked>[img:Slime Block]</linked><span><span><linked>Slime Block</linked></span></span></span><span class=\"am\">4</span></li><li><span class=\"i\"><linked>[img:Torch]</linked><span><span><linked>Torch</linked></span></span></span></li></ul>"
        }
      },
      {
        "result": {
          "rowspan": 1,
          "value": "<span class=\"i multi-line\"><linked>[img:Slime Chair]</linked><span><span><linked>Slime Chair</linked></span></span></span>"
        },
        "ingredients": {
          "value": "<ul><li><span class=\"i\"><linked>[img:Slime Block]</linked><span><span><linked>Slime Block</linked></span></span></span><span class=\"am\">4</span></li></ul>"
        }
      },
      {
        "result": {
          "rowspan": 1,
          "value": "<span class=\"i multi-line\"><linked>[img:Slime Chandelier]</linked><span><span><linked>Slime Chandelier</linked></span></span></span>"
        },
        "ingredients": {
          "value": "<ul><li><span class=\"i\"><linked>[img:Slime Block]</linked><span><span><linked>Slime Block</linked></span></span></span><span class=\"am\">4</span></li><li><span class=\"i\"><linked>[img:Torch]</linked><span><span><linked>Torch</linked></span></span></span><span class=\"am\">4</span></li><li><span class=\"i\"><linked>[img:Chain]</linked><span><span><linked>Chain</linked></span></span></span></li></ul>"
        }
      },
      {
        "result": {
          "rowspan": 1,
          "value": "<span class=\"i multi-line\"><linked>[img:Slime Chest]</linked><span><span><linked>Slime Chest</linked></span></span></span>"
        },
        "ingredients": {
          "value": "<ul><li><span class=\"i\"><linked>[img:Slime Block]</linked><span><span><linked>Slime Block</linked></span></span></span><span class=\"am\">8</span></li><li><span class=\"i\"><linked>[img:Any Iron Bar]</linked><span><span><linked>Any Iron Bar</linked></span></span></span><span class=\"am\">2</span></li></ul>"
        }
      },
      {
        "result": {
          "rowspan": 1,
          "value": "<span class=\"i multi-line\"><linked>[img:Slime Clock]</linked><span><span><linked>Slime Clock</linked></span></span></span>"
        },
        "ingredients": {
          "value": "<ul><li><span class=\"i\"><linked>[img:Any Iron Bar]</linked><span><span><linked>Any Iron Bar</linked></span></span></span><span class=\"am\">3</span></li><li><span class=\"i\"><linked>[img:Glass]</linked><span><span><linked>Glass</linked></span></span></span><span class=\"am\">6</span></li><li><span class=\"i\"><linked>[img:Slime Block]</linked><span><span><linked>Slime Block</linked></span></span></span><span class=\"am\">10</span></li></ul>"
        }
      },
      {
        "result": {
          "rowspan": 1,
          "value": "<span class=\"i multi-line\"><linked>[img:Slime Door]</linked><span><span><linked>Slime Door</linked></span></span></span>"
        },
        "ingredients": {
          "value": "<ul><li><span class=\"i\"><linked>[img:Slime Block]</linked><span><span><linked>Slime Block</linked></span></span></span><span class=\"am\">6</span></li></ul>"
        }
      },
      {
        "result": {
          "rowspan": 1,
          "value": "<span class=\"i multi-line\"><linked>[img:Slime Dresser]</linked><span><span><linked>Slime Dresser</linked></span><span class=\"eico s i1 i2 i3 i4\" title=\"Desktop, Console, Old-gen console and Mobile versions\"><b></b><i></i><span>(Desktop, Console, Old-gen console and Mobile versions)</span></span></span></span>"
        },
        "ingredients": {
          "value": "<ul><li><span class=\"i\"><linked>[img:Slime Block]</linked><span><span><linked>Slime Block</linked></span></span></span><span class=\"am\">16</span></li></ul>"
        }
      },
      {
        "result": {
          "rowspan": 1,
          "value": "<span class=\"i multi-line\"><linked>[img:Slime Lamp]</linked><span><span><linked>Slime Lamp</linked></span><span class=\"eico s i1 i2 i3 i4\" title=\"Desktop, Console, Old-gen console and Mobile versions\"><b></b><i></i><span>(Desktop, Console, Old-gen console and Mobile versions)</span></span></span></span>"
        },
        "ingredients": {
          "value": "<ul><li><span class=\"i\"><linked>[img:Torch]</linked><span><span><linked>Torch</linked></span></span></span></li><li><span class=\"i\"><linked>[img:Slime Block]</linked><span><span><linked>Slime Block</linked></span></span></span><span class=\"am\">3</span></li></ul>"
        }
      },
      {
        "result": {
          "rowspan": 1,
          "value": "<span class=\"i multi-line\"><linked>[img:Slime Lantern]</linked><span><span><linked>Slime Lantern</linked></span></span></span>"
        },
        "ingredients": {
          "value": "<ul><li><span class=\"i\"><linked>[img:Slime Block]</linked><span><span><linked>Slime Block</linked></span></span></span><span class=\"am\">6</span></li><li><span class=\"i\"><linked>[img:Torch]</linked><span><span><linked>Torch</linked></span></span></span></li></ul>"
        }
      },
      {
        "result": {
          "rowspan": 1,
          "value": "<span class=\"i multi-line\"><linked>[img:Slime Piano]</linked><span><span><linked>Slime Piano</linked></span></span></span>"
        },
        "ingredients": {
          "value": "<ul><li><span class=\"i\"><linked>[img:Bone]</linked><span><span><linked>Bone</linked></span></span></span><span class=\"am\">4</span></li><li><span class=\"i\"><linked>[img:Slime Block]</linked><span><span><linked>Slime Block</linked></span></span></span><span class=\"am\">15</span></li><li><span class=\"i\"><linked>[img:Book]</linked><span><span><linked>Book</linked></span></span></span></li></ul>"
        }
      },
      {
        "result": {
          "rowspan": 1,
          "value": "<span class=\"i multi-line\"><linked>[img:Slime Sink]</linked><span><span><linked>Slime Sink</linked></span><span class=\"eico s i1 i2 i4\" title=\"Desktop, Console and Mobile versions\"><b></b><i></i><span>(Desktop, Console and Mobile versions)</span></span></span></span>"
        },
        "ingredients": {
          "value": "<ul><li><span class=\"i\"><linked>[img:Slime Block]</linked><span><span><linked>Slime Block</linked></span></span></span><span class=\"am\">6</span></li><li><span class=\"i\"><linked>[img:Water Bucket]</linked><span><span><linked>Water Bucket</linked></span></span></span></li></ul>"
        }
      },
      {
        "result": {
          "rowspan": 1,
          "value": "<span class=\"i multi-line\"><linked>[img:Slime Sofa]</linked><span><span><linked>Slime Sofa</linked></span><span class=\"eico s i1 i2 i3 i4\" title=\"Desktop, Console, Old-gen console and Mobile versions\"><b></b><i></i><span>(Desktop, Console, Old-gen console and Mobile versions)</span></span></span></span>"
        },
        "ingredients": {
          "value": "<ul><li><span class=\"i\"><linked>[img:Slime Block]</linked><span><span><linked>Slime Block</linked></span></span></span><span class=\"am\">5</span></li><li><span class=\"i\"><linked>[img:Silk]</linked><span><span><linked>Silk</linked></span></span></span><span class=\"am\">2</span></li></ul>"
        }
      },
      {
        "result": {
          "rowspan": 1,
          "value": "<span class=\"i multi-line\"><linked>[img:Slime Table]</linked><span><span><linked>Slime Table</linked></span></span></span>"
        },
        "ingredients": {
          "value": "<ul><li><span class=\"i\"><linked>[img:Slime Block]</linked><span><span><linked>Slime Block</linked></span></span></span><span class=\"am\">8</span></li></ul>"
        }
      },
      {
        "result": {
          "rowspan": 1,
          "value": "<span class=\"i multi-line\"><linked>[img:Slime Toilet]</linked><span><span><linked>Slime Toilet</linked></span><span class=\"eico s i1 i2 i4\" title=\"Desktop, Console and Mobile versions\"><b></b><i></i><span>(Desktop, Console and Mobile versions)</span></span></span></span>"
        },
        "ingredients": {
          "value": "<ul><li><span class=\"i\"><linked>[img:Slime Block]</linked><span><span><linked>Slime Block</linked></span></span></span><span class=\"am\">6</span></li></ul>"
        }
      },
      {
        "result": {
          "rowspan": 1,
          "value": "<div class=\"version-note note-text small\"><linked>[img:Desktop version]</linked> <linked>[img:Console version]</linked> <linked>[img:Mobile version]</linked> only:</div><span class=\"i multi-line\"><linked>[img:Slime Work Bench]</linked><span><span><linked>Slime Work Bench</linked></span></span></span>"
        },
        "ingredients": {
          "value": "<ul><li><span class=\"i\"><linked>[img:Slime Block]</linked><span><span><linked>Slime Block</linked></span></span></span><span class=\"am\">10</span></li></ul>"
        }
      }
    ]
  }
}